<?xml version="1.0" encoding="utf-8"?>
<!-- Generator: Adobe Illustrator 23.0.2, SVG Export Plug-In . SVG Version: 6.00 Build 0)  -->
<svg version="1.1" id="Calque_1" xmlns="http://www.w3.org/2000/svg" xmlns:xlink="http://www.w3.org/1999/xlink" x="0px" y="0px"
	 viewBox="0 0 100 100" style="enable-background:new 0 0 100 100;" xml:space="preserve">
<style type="text/css">
	.st0{opacity:0.15;fill:#16152D;}
	.st1{fill:#16152D;}
</style>
<ellipse class="st0" cx="50" cy="88" rx="21.6" ry="5.7"/>
<path class="st1" d="M50,5.3c-18.7,0-33.8,15.2-33.8,33.8c0,8.5,3.2,16.3,8.4,22.3l0,0l0.2,0.2c0.9,1,1.9,2,2.9,2.9L50,86.9
	l22.2-22.2c7.2-6.2,11.7-15.4,11.7-25.6C83.8,20.5,68.7,5.3,50,5.3z M50,47.9c-4.8,0-8.8-3.9-8.8-8.8s3.9-8.8,8.8-8.8
	c4.8,0,8.8,3.9,8.8,8.8S54.8,47.9,50,47.9z"/>
</svg>
