<?xml version="1.0" encoding="utf-8"?>
<!-- Generator: Adobe Illustrator 23.0.2, SVG Export Plug-In . SVG Version: 6.00 Build 0)  -->
<svg version="1.1" id="Capa_1" xmlns="http://www.w3.org/2000/svg" xmlns:xlink="http://www.w3.org/1999/xlink" x="0px" y="0px"
	 viewBox="0 0 100 100" style="enable-background:new 0 0 100 100;" xml:space="preserve">
<style type="text/css">
	.st0{fill:#FFFFFF;stroke:#D9D9D9;stroke-miterlimit:10;}
</style>
<g>
	<circle class="st0" cx="50.4" cy="49.6" r="48.1"/>
	<path d="M27.1,47.7C27.2,47.7,27.2,47.7,27.1,47.7l14.1-14c1.1-1,2.8-1,3.8,0c1,1.1,1,2.8,0,3.8l-9.4,9.4h21.9h3.5h10.8
		c1.5,0,2.7,1.2,2.7,2.7c0,1.5-1.2,2.7-2.7,2.7H60.9h-3.5H35.6l9.4,9.4c1.1,1,1.1,2.8,0,3.8c-1,1.1-2.8,1.1-3.8,0l-14.1-14
		c0,0,0,0,0,0C26.1,50.4,26.1,48.7,27.1,47.7z"/>
</g>
</svg>
