<?xml version="1.0" encoding="utf-8"?>
<!-- Generator: Adobe Illustrator 23.0.2, SVG Export Plug-In . SVG Version: 6.00 Build 0)  -->
<svg version="1.1" id="Calque_1" xmlns="http://www.w3.org/2000/svg" xmlns:xlink="http://www.w3.org/1999/xlink" x="0px" y="0px"
	 viewBox="0 0 300 300" style="enable-background:new 0 0 300 300;" xml:space="preserve">
<style type="text/css">
	.st0{fill:#000100;}
	.st1{fill:none;stroke:#000100;stroke-width:2.0903;stroke-miterlimit:10;}
</style>
<g>
	<path class="st0" d="M292.1,175.2c-0.9-17.3-9.6-26.3-18.3-31c0.3-17-2.5-62.6-32.8-95.4C220,25.4,189,13.3,150,13l0,0
		c-0.3,0-0.6,0-0.6,0c-0.3,0-0.6,0-0.6,0l0,0c-39.3,0.3-70,12.4-91.4,35.6c-31,33.8-33.1,79.9-32.8,96.3c-8.1,5-15.5,13.9-16.7,30
		c-2.2,36.5,22,55.1,51.1,51.1c-9.9-46.5-13.3-87.3-13.3-87.3s-1.5,0-3.7,0.3c0.6-17.3,4.6-53,28.2-78.7
		c18.3-19.8,44.9-29.7,79.3-30c34.4,0,61,10.2,79.3,30c23.5,25.4,27.6,61,28.2,78.3c-1.2,0-2.2,0-2.2,0s-3.7,40.9-13.3,87.3
		C270.2,230.4,294.3,211.8,292.1,175.2z"/>
	<ellipse class="st0" cx="257.8" cy="212.7" rx="5.3" ry="4.6"/>
	<path class="st1" d="M257.8,213.3c0,0,3.1,68.1-72.5,68.1"/>
	<path class="st0" d="M194.3,279.9c0,4-8.1,7.1-18.3,7.1c-9.9,0-18.3-3.1-18.3-7.1s8.1-7.1,18.3-7.1
		C185.9,272.8,194.3,276.2,194.3,279.9z"/>
</g>
</svg>
