<?xml version="1.0" encoding="utf-8"?>
<!-- Generator: Adobe Illustrator 23.0.2, SVG Export Plug-In . SVG Version: 6.00 Build 0)  -->
<svg version="1.1" id="Calque_1" xmlns="http://www.w3.org/2000/svg" xmlns:xlink="http://www.w3.org/1999/xlink" x="0px" y="0px"
	 viewBox="0 0 100 100" style="enable-background:new 0 0 100 100;" xml:space="preserve">
<style type="text/css">
	.st0{fill:#DB5E9E;}
</style>
<g>
	<path class="st0" d="M50.2,64C58.9,64,66,56.8,66,48V22.2c0-8.9-7.1-16.1-15.8-16.1c-8.7,0-15.8,7.2-15.8,16.1V48
		C34.4,56.8,41.5,64,50.2,64z"/>
	<path class="st0" d="M75.4,31.9c-1.7,0-3.2,1.4-3.2,3.2V48c0,12.4-9.9,22.5-22.1,22.5C38,70.5,28.1,60.4,28.1,48V35.1
		c0-1.8-1.4-3.2-3.2-3.2c-1.7,0-3.2,1.4-3.2,3.2V48c0,14.9,11.1,27.1,25.2,28.7v13h-9.5c-1.7,0-3.2,1.4-3.2,3.2
		c0,1.8,1.4,3.2,3.2,3.2h25.2c1.7,0,3.2-1.4,3.2-3.2c0-1.8-1.4-3.2-3.2-3.2h-9.5v-13C67.5,75.1,78.6,62.8,78.6,48V35.1
		C78.6,33.3,77.2,31.9,75.4,31.9z"/>
</g>
</svg>
