<?xml version="1.0" encoding="utf-8"?>
<!-- Generator: Adobe Illustrator 23.0.2, SVG Export Plug-In . SVG Version: 6.00 Build 0)  -->
<svg version="1.1" id="Calque_1" xmlns="http://www.w3.org/2000/svg" xmlns:xlink="http://www.w3.org/1999/xlink" x="0px" y="0px"
	 viewBox="0 0 100 100" style="enable-background:new 0 0 100 100; opacity: 0.2" xml:space="preserve">
<style type="text/css">
	.st0{fill:#5E808E;}
	.st1{opacity:0.5;}
	.st2{fill:#576D7F;}
</style>
<g>
	<path class="st0" d="M62.9,68l-3.3-0.6c-1.4-0.2-2.8,0.1-3.9,1l-2.6,2c-1.8,1.4-4.3,1.4-6.1,0l-2.6-2c-1.1-0.9-2.5-1.2-3.9-1
		L37.1,68c-1.5,0.3-3-0.2-4.1-1.1l0,29.4c0,0.9,1,1.5,1.8,1L50,87.6l15.1,9.7c0.8,0.5,1.8-0.1,1.8-1l0-29.4
		C65.9,67.8,64.4,68.2,62.9,68z"/>
	<path class="st0" d="M82.1,35.7l-1.6-2.7c-0.7-1.2-0.9-2.5-0.5-3.8l0.9-3c0.6-2.1-0.2-4.3-2.1-5.4l-2.7-1.7
		c-1.1-0.7-1.9-1.9-2.2-3.2l-0.6-3.1c-0.4-2.1-2.2-3.7-4.4-3.9l-3.2-0.2c-1.3-0.1-2.6-0.7-3.4-1.8l-2-2.5c-1.4-1.7-3.7-2.3-5.7-1.4
		l-2.9,1.3c-1.2,0.5-2.6,0.5-3.8,0l-2.9-1.3c-2-0.9-4.3-0.3-5.7,1.4l-2,2.5c-0.8,1-2.1,1.7-3.4,1.8l-3.2,0.2c-2.2,0.1-4,1.7-4.4,3.9
		L26,15.8c-0.3,1.3-1,2.5-2.2,3.2l-2.7,1.7c-1.8,1.1-2.7,3.4-2.1,5.4l0.9,3c0.4,1.3,0.2,2.7-0.5,3.8l-1.6,2.7
		c-1.1,1.9-0.8,4.2,0.7,5.8l2.2,2.3c0.9,1,1.4,2.3,1.4,3.6L22,50.5c-0.1,2.2,1.2,4.1,3.3,4.8l3,1c1.3,0.4,2.3,1.3,2.9,2.6l1.3,2.9
		c0.9,2,3,3.1,5.2,2.7l3.1-0.5c1.3-0.2,2.7,0.1,3.7,0.9l2.5,1.9c1.7,1.3,4.1,1.3,5.8,0l2.5-1.9c1.1-0.8,2.4-1.2,3.7-0.9l3.1,0.5
		c2.1,0.4,4.3-0.7,5.2-2.7l1.3-2.9c0.6-1.2,1.6-2.1,2.9-2.6l3-1c2.1-0.7,3.4-2.6,3.3-4.8l-0.2-3.2c-0.1-1.3,0.4-2.6,1.4-3.6l2.2-2.3
		C83,39.9,83.2,37.5,82.1,35.7z M50,57.5c-12.4,0-22.4-10-22.4-22.4c0-12.4,10-22.4,22.4-22.4s22.4,10,22.4,22.4
		C72.4,47.5,62.4,57.5,50,57.5z"/>
	<g class="st1">
		<path class="st2" d="M61,22.6l1.3,6.8c-9.8,3.1-16.4,17.4-16.7,18.2c-1.7-2.4-7.5-5.5-7.9-5.7l2.3-4.1c0.2,0.1,3.1,1,4.8,3.4
			C45.2,40.6,51.7,27.9,61,22.6z"/>
	</g>
</g>
</svg>
