<?xml version="1.0" encoding="utf-8"?>
<!-- Generator: Adobe Illustrator 23.0.3, SVG Export Plug-In . SVG Version: 6.00 Build 0)  -->
<svg version="1.1" id="Calque_1" xmlns="http://www.w3.org/2000/svg" xmlns:xlink="http://www.w3.org/1999/xlink" x="0px" y="0px"
	 viewBox="0 0 100 100" style="enable-background:new 0 0 100 100;" xml:space="preserve">
<style type="text/css">
	.st0{fill:#000100;}
</style>
<g>
	<path class="st0" d="M78.5,51.1c-1.8,0-3.2,1.4-3.2,3.2v32.1c0,1.8-1.4,3.2-3.2,3.2H14.3c-1.8,0-3.2-1.4-3.2-3.2V22.2
		c0-1.8,1.4-3.2,3.2-3.2h38.6c1.8,0,3.2-1.4,3.2-3.2s-1.4-3.2-3.2-3.2H14.3c-5.3,0-9.6,4.3-9.6,9.6v64.3c0,5.3,4.3,9.6,9.6,9.6h57.9
		c5.3,0,9.6-4.3,9.6-9.6V54.3C81.8,52.6,80.3,51.1,78.5,51.1z"/>
	<path class="st0" d="M91,9.7c-2.3-2.3-5.4-3.6-8.7-3.6c-3.3,0-6.4,1.3-8.7,3.6L31.3,52.1c-0.4,0.4-0.6,0.8-0.8,1.3l-6.4,19.3
		c-0.6,1.7,0.3,3.5,2,4.1c0.3,0.1,0.7,0.2,1,0.2c0.3,0,0.7-0.1,1-0.2l19.3-6.4c0.5-0.2,0.9-0.4,1.3-0.8L91,27.1
		C95.8,22.3,95.8,14.5,91,9.7z"/>
</g>
</svg>
