<?xml version="1.0" encoding="utf-8"?>
<!-- Generator: Adobe Illustrator 23.0.2, SVG Export Plug-In . SVG Version: 6.00 Build 0)  -->
<svg version="1.1" id="Icons" xmlns="http://www.w3.org/2000/svg" xmlns:xlink="http://www.w3.org/1999/xlink" x="0px" y="0px"
	 viewBox="0 0 100 100" style="enable-background:new 0 0 100 100;" xml:space="preserve">
<g>
	<path d="M76.6,72.8c-0.5,0.3-1.1,0.3-1.5,0C74,72.2,46,56.6,46,40.5c0-9.1,7.2-16.5,16.2-16.9c-2.7-8.7-10.8-15-20.3-15
		c-11.8,0-21.3,9.5-21.3,21.3c0,8.3,4.8,17.6,11.8,22.3c-16.7,4.2-29,18.7-29,29.4c0,12.7,77,12.7,77,0c0-2.9-0.9-6.1-2.6-9.3
		C77.1,72.6,76.7,72.8,76.6,72.8z"/>
	<path d="M85.6,29.8c-3.7,0-7.3,1.6-9.7,4.5c-2.4-2.9-6-4.5-9.7-4.5c-7,0-12.7,5.7-12.7,12.7c0,12,21,23.8,21.8,24.2
		c0.3,0.2,0.8,0.2,1.1,0c0.8-0.5,21.8-12,21.8-24.2C98.3,35.4,92.6,29.8,85.6,29.8z"/>
</g>
</svg>
