<?xml version="1.0" encoding="utf-8"?>
<!-- Generator: Adobe Illustrator 23.0.2, SVG Export Plug-In . SVG Version: 6.00 Build 0)  -->
<svg version="1.1" id="Calque_1" xmlns="http://www.w3.org/2000/svg" xmlns:xlink="http://www.w3.org/1999/xlink" x="0px" y="0px"
	 viewBox="0 0 100 100" style="enable-background:new 0 0 100 100;" xml:space="preserve">
<style type="text/css">
	.st0{fill:#16152D;}
</style>
<g>
	<path class="st0" d="M93.8,14.4H37.2c-1.6-4.6-5.9-8-11.1-8c-5.1,0-9.5,3.3-11.1,8H6.2c-2.1,0-3.7,1.7-3.7,3.7s1.7,3.7,3.7,3.7h8.8
		c1.6,4.6,5.9,8,11.1,8c5.1,0,9.5-3.3,11.1-8h56.6c2.1,0,3.7-1.7,3.7-3.7S95.8,14.4,93.8,14.4L93.8,14.4z M26.1,22.4
		c-2.3,0-4.2-1.9-4.2-4.2c0-2.3,1.9-4.2,4.2-4.2c2.3,0,4.2,1.9,4.2,4.2C30.4,20.5,28.5,22.4,26.1,22.4z"/>
	<path class="st0" d="M93.8,46.3h-8.8c-1.6-4.6-5.9-8-11.1-8c-5.1,0-9.5,3.3-11.1,8H6.2c-2.1,0-3.7,1.7-3.7,3.7
		c0,2.1,1.7,3.7,3.7,3.7h56.6c1.6,4.6,5.9,8,11.1,8c5.1,0,9.5-3.3,11.1-8h8.8c2.1,0,3.7-1.7,3.7-3.7C97.5,48,95.8,46.3,93.8,46.3z
		 M73.9,54.2c-2.3,0-4.2-1.9-4.2-4.2s1.9-4.2,4.2-4.2c2.3,0,4.2,1.9,4.2,4.2S76.2,54.2,73.9,54.2z"/>
	<path class="st0" d="M93.8,78.1H53.1c-1.6-4.6-5.9-8-11.1-8c-5.1,0-9.5,3.3-11.1,8H6.2c-2.1,0-3.7,1.7-3.7,3.7
		c0,2.1,1.7,3.7,3.7,3.7H31c1.6,4.6,5.9,8,11.1,8c5.1,0,9.5-3.3,11.1-8h40.7c2.1,0,3.7-1.7,3.7-3.7C97.5,79.8,95.8,78.1,93.8,78.1z
		 M42,86.1c-2.3,0-4.2-1.9-4.2-4.2c0-2.3,1.9-4.2,4.2-4.2c2.3,0,4.2,1.9,4.2,4.2C46.3,84.2,44.4,86.1,42,86.1z"/>
</g>
</svg>
