<?xml version="1.0" encoding="utf-8"?>
<!-- Generator: Adobe Illustrator 23.0.2, SVG Export Plug-In . SVG Version: 6.00 Build 0)  -->
<svg version="1.1" id="Icons" xmlns="http://www.w3.org/2000/svg" xmlns:xlink="http://www.w3.org/1999/xlink" x="0px" y="0px"
	 viewBox="0 0 100 100" style="enable-background:new 0 0 100 100;" xml:space="preserve">
<style type="text/css">
	.st0{fill:#8AD0F0;}
	.st1{fill:#86B3DC;}
	.st2{fill:#FFFFFF;stroke:#86B3DC;stroke-width:0.25;stroke-miterlimit:10;}
</style>
<g>
	<path class="st0" d="M88.1,15l-76.3,5.9c-5.2,0-9.4,4.2-9.4,9.4l5.9,37.4c0,5.2,4.2,9.4,9.4,9.4l3.6,0.2h0c0,0,2.1,8.1-2.1,12.3
		c0,0,12.5-3,14.5-11.5l48.4,3c5.2,0,9.4-4.2,9.4-9.4l5.9-47.3C97.5,19.2,93.3,15,88.1,15z"/>
	<path class="st1" d="M97.3,22.6c-0.1,2.5-0.3,5.1-0.6,7.6c-0.6,5.2-1.4,10.5-2.3,15.6c-0.8,4.7-1.8,9.5-4,13.8
		c-3.6,7.2-11.3,9.8-18.8,11c-7.8,1.2-15.7,0.8-23.6,1.3c-4.3,0.3-8.7,0.6-13.1,0.4c-3.7-0.2-8-0.5-11.3-2.4
		c-6.4-3.7-7.4-13-8.3-19.6c-1-7.5-2.9-17.3,2.3-23.8c2.4-3,5.5-4.3,9.1-5.6c1.2-0.4,2.6-0.8,4.1-1.3l-19,1.5
		c-5.2,0-9.4,4.2-9.4,9.4l5.9,37.4c0,5.2,4.2,9.4,9.4,9.4l3.6,0.2h0c0,0,2.1,8.1-2.1,12.3c0,0,12.5-3,14.5-11.5l48.4,3
		c5.2,0,9.4-4.2,9.4-9.4l5.9-47.3C97.5,23.8,97.4,23.2,97.3,22.6z"/>
	<g>
		<path class="st2" d="M52.8,58.9C52.7,58.9,52.7,58.9,52.8,58.9C52.7,58.9,52.7,58.9,52.8,58.9L52.8,58.9z"/>
		<path class="st2" d="M52.7,53.5c-1.5,0-2.7,1.2-2.7,2.7c0,0,0,0.1,0,0.1c0.1,1.5,1.3,2.6,2.7,2.6c1.5,0,2.7-1.3,2.7-2.7
			C55.3,54.7,54.1,53.5,52.7,53.5z"/>
		<path class="st2" d="M53.2,29.1c-3.2-0.1-6.3,1.2-8.5,3.5c-0.3,0.3-0.4,0.7-0.4,1.1c0,1,0.8,1.8,1.8,1.9c0.5,0,0.9-0.2,1.3-0.5
			c1.4-1.5,3.4-2.3,5.4-2.3c3.1,0,4.5,1.7,4.5,3.6c0,4.2-7.4,4.7-7.4,10.1c0,1.3,0.8,3.8,2.5,3.8c0,0,0,0,0,0c0.9,0,1.7-0.7,1.7-1.7
			c0-0.6-0.4-1.1-0.4-1.8c0-4.1,8-4.7,8.2-11C61.9,32.1,58.6,29.1,53.2,29.1z"/>
	</g>
</g>
</svg>
