<?xml version="1.0" encoding="utf-8"?>
<!-- Generator: Adobe Illustrator 23.0.2, SVG Export Plug-In . SVG Version: 6.00 Build 0)  -->
<svg version="1.1" id="Calque_1" xmlns="http://www.w3.org/2000/svg" xmlns:xlink="http://www.w3.org/1999/xlink" x="0px" y="0px"
	 viewBox="0 0 300 200" style="enable-background:new 0 0 300 200;" xml:space="preserve">
<style type="text/css">
	.st0{opacity:0.4;}
	.st1{fill:url(#SVGID_1_);}
	.st2{fill:url(#SVGID_2_);}
	.st3{fill:url(#SVGID_3_);}
	.st4{fill:url(#SVGID_4_);}
	.st5{fill:url(#SVGID_5_);}
	.st6{fill:url(#SVGID_6_);}
	.st7{fill:url(#SVGID_7_);}
	.st8{fill:url(#SVGID_8_);}
	.st9{fill:url(#SVGID_9_);}
	.st10{fill:url(#SVGID_10_);}
	.st11{fill:url(#SVGID_11_);}
	.st12{fill:url(#SVGID_12_);}
	.st13{fill:url(#SVGID_13_);}
	.st14{fill:url(#SVGID_14_);}
	.st15{fill:url(#SVGID_15_);}
	.st16{fill:url(#SVGID_16_);}
	.st17{fill:url(#SVGID_17_);}
	.st18{fill:url(#SVGID_18_);}
	.st19{fill:url(#SVGID_19_);}
	.st20{fill:url(#SVGID_20_);}
	.st21{fill:url(#SVGID_21_);}
	.st22{fill:url(#SVGID_22_);}
	.st23{fill:url(#SVGID_23_);}
	.st24{fill:url(#SVGID_24_);}
	.st25{fill:url(#SVGID_25_);}
	.st26{fill:url(#SVGID_26_);}
	.st27{fill:url(#SVGID_27_);}
	.st28{fill:url(#SVGID_28_);}
	.st29{fill:url(#SVGID_29_);}
	.st30{fill:url(#SVGID_30_);}
</style>
<g class="st0">
	<g>
		<radialGradient id="SVGID_1_" cx="93.8944" cy="105.9916" r="67.7986" gradientUnits="userSpaceOnUse">
			<stop  offset="0" style="stop-color:#F6E38A"/>
			<stop  offset="0.2598" style="stop-color:#F3E088"/>
			<stop  offset="0.4446" style="stop-color:#EBD781"/>
			<stop  offset="0.6062" style="stop-color:#DDC776"/>
			<stop  offset="0.7544" style="stop-color:#CAB166"/>
			<stop  offset="0.8922" style="stop-color:#B19552"/>
			<stop  offset="1" style="stop-color:#98793E"/>
		</radialGradient>
		<path class="st1" d="M150.3,183.2C87.7,183.2,37,144.9,37,97.6c0-28.2,18-53.2,45.9-68.8C56.8,44.1,40,68,40,94.9
			c0,46.2,49.6,83.7,110.8,83.7L150.3,183.2z"/>
	</g>
	<g>
		<radialGradient id="SVGID_2_" cx="206.086" cy="105.9916" r="67.7981" gradientUnits="userSpaceOnUse">
			<stop  offset="0" style="stop-color:#F6E38A"/>
			<stop  offset="0.2598" style="stop-color:#F3E088"/>
			<stop  offset="0.4446" style="stop-color:#EBD781"/>
			<stop  offset="0.6062" style="stop-color:#DDC776"/>
			<stop  offset="0.7544" style="stop-color:#CAB166"/>
			<stop  offset="0.8922" style="stop-color:#B19552"/>
			<stop  offset="1" style="stop-color:#98793E"/>
		</radialGradient>
		<path class="st2" d="M149.7,183.2c62.6,0,113.3-38.3,113.3-85.6c0-28.2-18-53.2-45.9-68.8C243.2,44.1,260,68,260,94.9
			c0,46.2-49.6,83.7-110.8,83.7L149.7,183.2z"/>
	</g>
	<g>
		<radialGradient id="SVGID_3_" cx="71.6377" cy="135.594" r="14.3574" gradientUnits="userSpaceOnUse">
			<stop  offset="0" style="stop-color:#F6E38A"/>
			<stop  offset="0.2598" style="stop-color:#F3E088"/>
			<stop  offset="0.4446" style="stop-color:#EBD781"/>
			<stop  offset="0.6062" style="stop-color:#DDC776"/>
			<stop  offset="0.7544" style="stop-color:#CAB166"/>
			<stop  offset="0.8922" style="stop-color:#B19552"/>
			<stop  offset="1" style="stop-color:#98793E"/>
		</radialGradient>
		<path class="st3" d="M69.6,154c0,0-16.4-20.1,3-36.8C72.6,117.2,91.5,135.9,69.6,154z"/>
		<radialGradient id="SVGID_4_" cx="43.8468" cy="148.4367" r="16.7387" gradientUnits="userSpaceOnUse">
			<stop  offset="0" style="stop-color:#F6E38A"/>
			<stop  offset="0.2598" style="stop-color:#F3E088"/>
			<stop  offset="0.4446" style="stop-color:#EBD781"/>
			<stop  offset="0.6062" style="stop-color:#DDC776"/>
			<stop  offset="0.7544" style="stop-color:#CAB166"/>
			<stop  offset="0.8922" style="stop-color:#B19552"/>
			<stop  offset="1" style="stop-color:#98793E"/>
		</radialGradient>
		<path class="st4" d="M66,156.5c0,0-30.8,4.2-44.2-15.6C21.7,140.9,51.7,134.4,66,156.5z"/>
		<radialGradient id="SVGID_5_" cx="27.5135" cy="129.0002" r="14.5658" gradientUnits="userSpaceOnUse">
			<stop  offset="0" style="stop-color:#F6E38A"/>
			<stop  offset="0.2598" style="stop-color:#F3E088"/>
			<stop  offset="0.4446" style="stop-color:#EBD781"/>
			<stop  offset="0.6062" style="stop-color:#DDC776"/>
			<stop  offset="0.7544" style="stop-color:#CAB166"/>
			<stop  offset="0.8922" style="stop-color:#B19552"/>
			<stop  offset="1" style="stop-color:#98793E"/>
		</radialGradient>
		<path class="st5" d="M46.8,136c0,0-26.8,3.6-38.5-13.6C8.3,122.4,34.3,116.8,46.8,136z"/>
		<radialGradient id="SVGID_6_" cx="25.2868" cy="105.2129" r="12.9613" gradientUnits="userSpaceOnUse">
			<stop  offset="0" style="stop-color:#F6E38A"/>
			<stop  offset="0.2598" style="stop-color:#F3E088"/>
			<stop  offset="0.4446" style="stop-color:#EBD781"/>
			<stop  offset="0.6062" style="stop-color:#DDC776"/>
			<stop  offset="0.7544" style="stop-color:#CAB166"/>
			<stop  offset="0.8922" style="stop-color:#B19552"/>
			<stop  offset="1" style="stop-color:#98793E"/>
		</radialGradient>
		<path class="st6" d="M38.8,117.6c0,0-26.3-5.4-27-24.8C11.8,92.8,38.5,96.2,38.8,117.6z"/>
		<radialGradient id="SVGID_7_" cx="28.5934" cy="81.0704" r="11.3278" gradientUnits="userSpaceOnUse">
			<stop  offset="0" style="stop-color:#F6E38A"/>
			<stop  offset="0.2598" style="stop-color:#F3E088"/>
			<stop  offset="0.4446" style="stop-color:#EBD781"/>
			<stop  offset="0.6062" style="stop-color:#DDC776"/>
			<stop  offset="0.7544" style="stop-color:#CAB166"/>
			<stop  offset="0.8922" style="stop-color:#B19552"/>
			<stop  offset="1" style="stop-color:#98793E"/>
		</radialGradient>
		<path class="st7" d="M39,93.1c0,0-22.7-6.8-20.8-24.1C18.1,69,41.5,74,39,93.1z"/>
		<radialGradient id="SVGID_8_" cx="39.4551" cy="58.6183" r="11.221" gradientUnits="userSpaceOnUse">
			<stop  offset="0" style="stop-color:#F6E38A"/>
			<stop  offset="0.2598" style="stop-color:#F3E088"/>
			<stop  offset="0.4446" style="stop-color:#EBD781"/>
			<stop  offset="0.6062" style="stop-color:#DDC776"/>
			<stop  offset="0.7544" style="stop-color:#CAB166"/>
			<stop  offset="0.8922" style="stop-color:#B19552"/>
			<stop  offset="1" style="stop-color:#98793E"/>
		</radialGradient>
		<path class="st8" d="M40.3,73c0,0-15.4-14.3-2.5-28.7C37.8,44.3,54.9,57.3,40.3,73z"/>
		<radialGradient id="SVGID_9_" cx="56.0804" cy="40.4381" r="9.2085" gradientUnits="userSpaceOnUse">
			<stop  offset="0" style="stop-color:#F6E38A"/>
			<stop  offset="0.2598" style="stop-color:#F3E088"/>
			<stop  offset="0.4446" style="stop-color:#EBD781"/>
			<stop  offset="0.6062" style="stop-color:#DDC776"/>
			<stop  offset="0.7544" style="stop-color:#CAB166"/>
			<stop  offset="0.8922" style="stop-color:#B19552"/>
			<stop  offset="1" style="stop-color:#98793E"/>
		</radialGradient>
		<path class="st9" d="M56.8,52.2c0,0-12.6-11.8-2-23.6C54.7,28.7,68.8,39.4,56.8,52.2z"/>
		<radialGradient id="SVGID_10_" cx="74.6728" cy="24.9733" r="7.6432" gradientUnits="userSpaceOnUse">
			<stop  offset="0" style="stop-color:#F6E38A"/>
			<stop  offset="0.2598" style="stop-color:#F3E088"/>
			<stop  offset="0.4446" style="stop-color:#EBD781"/>
			<stop  offset="0.6062" style="stop-color:#DDC776"/>
			<stop  offset="0.7544" style="stop-color:#CAB166"/>
			<stop  offset="0.8922" style="stop-color:#B19552"/>
			<stop  offset="1" style="stop-color:#98793E"/>
		</radialGradient>
		<path class="st10" d="M67.1,32.7c0,0,0.4-12.3,15.1-15.4C82.2,17.3,83.5,29.5,67.1,32.7z"/>
		<radialGradient id="SVGID_11_" cx="56.3256" cy="116.5791" r="12.7751" gradientUnits="userSpaceOnUse">
			<stop  offset="0" style="stop-color:#F6E38A"/>
			<stop  offset="0.2598" style="stop-color:#F3E088"/>
			<stop  offset="0.4446" style="stop-color:#EBD781"/>
			<stop  offset="0.6062" style="stop-color:#DDC776"/>
			<stop  offset="0.7544" style="stop-color:#CAB166"/>
			<stop  offset="0.8922" style="stop-color:#B19552"/>
			<stop  offset="1" style="stop-color:#98793E"/>
		</radialGradient>
		<path class="st11" d="M48.5,132.2c0,0-7.6-20.5,14.8-31.3C63.3,100.9,73.5,120.7,48.5,132.2z"/>
		<radialGradient id="SVGID_12_" cx="52.3337" cy="93.9423" r="11.678" gradientUnits="userSpaceOnUse">
			<stop  offset="0" style="stop-color:#F6E38A"/>
			<stop  offset="0.2598" style="stop-color:#F3E088"/>
			<stop  offset="0.4446" style="stop-color:#EBD781"/>
			<stop  offset="0.6062" style="stop-color:#DDC776"/>
			<stop  offset="0.7544" style="stop-color:#CAB166"/>
			<stop  offset="0.8922" style="stop-color:#B19552"/>
			<stop  offset="1" style="stop-color:#98793E"/>
		</radialGradient>
		<path class="st12" d="M41.2,106.1c0,0-0.3-19,22.2-24.4C63.4,81.7,66.2,100.5,41.2,106.1z"/>
		<radialGradient id="SVGID_13_" cx="53.2424" cy="73.728" r="11.7222" gradientUnits="userSpaceOnUse">
			<stop  offset="0" style="stop-color:#F6E38A"/>
			<stop  offset="0.2598" style="stop-color:#F3E088"/>
			<stop  offset="0.4446" style="stop-color:#EBD781"/>
			<stop  offset="0.6062" style="stop-color:#DDC776"/>
			<stop  offset="0.7544" style="stop-color:#CAB166"/>
			<stop  offset="0.8922" style="stop-color:#B19552"/>
			<stop  offset="1" style="stop-color:#98793E"/>
		</radialGradient>
		<path class="st13" d="M39,82.2c0,0,6.7-16.8,28.5-16.9C67.5,65.3,63.1,82.4,39,82.2z"/>
		<radialGradient id="SVGID_14_" cx="65.4277" cy="54.8639" r="11.7829" gradientUnits="userSpaceOnUse">
			<stop  offset="0" style="stop-color:#F6E38A"/>
			<stop  offset="0.2598" style="stop-color:#F3E088"/>
			<stop  offset="0.4446" style="stop-color:#EBD781"/>
			<stop  offset="0.6062" style="stop-color:#DDC776"/>
			<stop  offset="0.7544" style="stop-color:#CAB166"/>
			<stop  offset="0.8922" style="stop-color:#B19552"/>
			<stop  offset="1" style="stop-color:#98793E"/>
		</radialGradient>
		<path class="st14" d="M50.2,61.4c0,0,9.5-15.4,30.4-13.2C80.6,48.2,73.3,64.2,50.2,61.4z"/>
		<radialGradient id="SVGID_15_" cx="80.4122" cy="36.0955" r="10.9653" gradientUnits="userSpaceOnUse">
			<stop  offset="0" style="stop-color:#F6E38A"/>
			<stop  offset="0.2598" style="stop-color:#F3E088"/>
			<stop  offset="0.4446" style="stop-color:#EBD781"/>
			<stop  offset="0.6062" style="stop-color:#DDC776"/>
			<stop  offset="0.7544" style="stop-color:#CAB166"/>
			<stop  offset="0.8922" style="stop-color:#B19552"/>
			<stop  offset="1" style="stop-color:#98793E"/>
		</radialGradient>
		<path class="st15" d="M65.7,39.7c0,0,11.8-12.1,29.4-7.4C95.1,32.3,85,45.1,65.7,39.7z"/>
		<radialGradient id="SVGID_16_" cx="99.4085" cy="21.7439" r="10.9659" gradientUnits="userSpaceOnUse">
			<stop  offset="0" style="stop-color:#F6E38A"/>
			<stop  offset="0.2598" style="stop-color:#F3E088"/>
			<stop  offset="0.4446" style="stop-color:#EBD781"/>
			<stop  offset="0.6062" style="stop-color:#DDC776"/>
			<stop  offset="0.7544" style="stop-color:#CAB166"/>
			<stop  offset="0.8922" style="stop-color:#B19552"/>
			<stop  offset="1" style="stop-color:#98793E"/>
		</radialGradient>
		<path class="st16" d="M84.7,25.3c0,0,11.8-12.1,29.4-7.4C114.1,17.9,104,30.8,84.7,25.3z"/>
	</g>
	<g>
		<radialGradient id="SVGID_17_" cx="228.3613" cy="135.594" r="14.3577" gradientUnits="userSpaceOnUse">
			<stop  offset="0" style="stop-color:#F6E38A"/>
			<stop  offset="0.2598" style="stop-color:#F3E088"/>
			<stop  offset="0.4446" style="stop-color:#EBD781"/>
			<stop  offset="0.6062" style="stop-color:#DDC776"/>
			<stop  offset="0.7544" style="stop-color:#CAB166"/>
			<stop  offset="0.8922" style="stop-color:#B19552"/>
			<stop  offset="1" style="stop-color:#98793E"/>
		</radialGradient>
		<path class="st17" d="M230.4,154c0,0,16.4-20.1-3-36.8C227.4,117.2,208.5,135.9,230.4,154z"/>
		<radialGradient id="SVGID_18_" cx="256.156" cy="148.4367" r="16.7405" gradientUnits="userSpaceOnUse">
			<stop  offset="0" style="stop-color:#F6E38A"/>
			<stop  offset="0.2598" style="stop-color:#F3E088"/>
			<stop  offset="0.4446" style="stop-color:#EBD781"/>
			<stop  offset="0.6062" style="stop-color:#DDC776"/>
			<stop  offset="0.7544" style="stop-color:#CAB166"/>
			<stop  offset="0.8922" style="stop-color:#B19552"/>
			<stop  offset="1" style="stop-color:#98793E"/>
		</radialGradient>
		<path class="st18" d="M234,156.5c0,0,30.8,4.2,44.2-15.6C278.3,140.9,248.3,134.4,234,156.5z"/>
		<radialGradient id="SVGID_19_" cx="272.4858" cy="129.0002" r="14.5663" gradientUnits="userSpaceOnUse">
			<stop  offset="0" style="stop-color:#F6E38A"/>
			<stop  offset="0.2598" style="stop-color:#F3E088"/>
			<stop  offset="0.4446" style="stop-color:#EBD781"/>
			<stop  offset="0.6062" style="stop-color:#DDC776"/>
			<stop  offset="0.7544" style="stop-color:#CAB166"/>
			<stop  offset="0.8922" style="stop-color:#B19552"/>
			<stop  offset="1" style="stop-color:#98793E"/>
		</radialGradient>
		<path class="st19" d="M253.2,136c0,0,26.8,3.6,38.5-13.6C291.7,122.4,265.7,116.8,253.2,136z"/>
		<radialGradient id="SVGID_20_" cx="274.7125" cy="105.2129" r="12.9603" gradientUnits="userSpaceOnUse">
			<stop  offset="0" style="stop-color:#F6E38A"/>
			<stop  offset="0.2598" style="stop-color:#F3E088"/>
			<stop  offset="0.4446" style="stop-color:#EBD781"/>
			<stop  offset="0.6062" style="stop-color:#DDC776"/>
			<stop  offset="0.7544" style="stop-color:#CAB166"/>
			<stop  offset="0.8922" style="stop-color:#B19552"/>
			<stop  offset="1" style="stop-color:#98793E"/>
		</radialGradient>
		<path class="st20" d="M261.2,117.6c0,0,26.3-5.4,27-24.8C288.2,92.8,261.5,96.2,261.2,117.6z"/>
		<radialGradient id="SVGID_21_" cx="271.404" cy="81.0704" r="11.328" gradientUnits="userSpaceOnUse">
			<stop  offset="0" style="stop-color:#F6E38A"/>
			<stop  offset="0.2598" style="stop-color:#F3E088"/>
			<stop  offset="0.4446" style="stop-color:#EBD781"/>
			<stop  offset="0.6062" style="stop-color:#DDC776"/>
			<stop  offset="0.7544" style="stop-color:#CAB166"/>
			<stop  offset="0.8922" style="stop-color:#B19552"/>
			<stop  offset="1" style="stop-color:#98793E"/>
		</radialGradient>
		<path class="st21" d="M261,93.1c0,0,22.7-6.8,20.8-24.1C281.9,69,258.5,74,261,93.1z"/>
		<radialGradient id="SVGID_22_" cx="260.5439" cy="58.6183" r="11.2211" gradientUnits="userSpaceOnUse">
			<stop  offset="0" style="stop-color:#F6E38A"/>
			<stop  offset="0.2598" style="stop-color:#F3E088"/>
			<stop  offset="0.4446" style="stop-color:#EBD781"/>
			<stop  offset="0.6062" style="stop-color:#DDC776"/>
			<stop  offset="0.7544" style="stop-color:#CAB166"/>
			<stop  offset="0.8922" style="stop-color:#B19552"/>
			<stop  offset="1" style="stop-color:#98793E"/>
		</radialGradient>
		<path class="st22" d="M259.7,73c0,0,15.4-14.3,2.5-28.7C262.2,44.3,245.1,57.3,259.7,73z"/>
		<radialGradient id="SVGID_23_" cx="243.9203" cy="40.4381" r="9.2087" gradientUnits="userSpaceOnUse">
			<stop  offset="0" style="stop-color:#F6E38A"/>
			<stop  offset="0.2598" style="stop-color:#F3E088"/>
			<stop  offset="0.4446" style="stop-color:#EBD781"/>
			<stop  offset="0.6062" style="stop-color:#DDC776"/>
			<stop  offset="0.7544" style="stop-color:#CAB166"/>
			<stop  offset="0.8922" style="stop-color:#B19552"/>
			<stop  offset="1" style="stop-color:#98793E"/>
		</radialGradient>
		<path class="st23" d="M243.2,52.2c0,0,12.6-11.8,2-23.6C245.3,28.7,231.2,39.4,243.2,52.2z"/>
		<radialGradient id="SVGID_24_" cx="225.3258" cy="24.9733" r="7.6438" gradientUnits="userSpaceOnUse">
			<stop  offset="0" style="stop-color:#F6E38A"/>
			<stop  offset="0.2598" style="stop-color:#F3E088"/>
			<stop  offset="0.4446" style="stop-color:#EBD781"/>
			<stop  offset="0.6062" style="stop-color:#DDC776"/>
			<stop  offset="0.7544" style="stop-color:#CAB166"/>
			<stop  offset="0.8922" style="stop-color:#B19552"/>
			<stop  offset="1" style="stop-color:#98793E"/>
		</radialGradient>
		<path class="st24" d="M232.9,32.7c0,0-0.4-12.3-15.1-15.4C217.8,17.3,216.5,29.5,232.9,32.7z"/>
		<radialGradient id="SVGID_25_" cx="243.673" cy="116.5791" r="12.7754" gradientUnits="userSpaceOnUse">
			<stop  offset="0" style="stop-color:#F6E38A"/>
			<stop  offset="0.2598" style="stop-color:#F3E088"/>
			<stop  offset="0.4446" style="stop-color:#EBD781"/>
			<stop  offset="0.6062" style="stop-color:#DDC776"/>
			<stop  offset="0.7544" style="stop-color:#CAB166"/>
			<stop  offset="0.8922" style="stop-color:#B19552"/>
			<stop  offset="1" style="stop-color:#98793E"/>
		</radialGradient>
		<path class="st25" d="M251.5,132.2c0,0,7.6-20.5-14.8-31.3C236.7,100.9,226.5,120.7,251.5,132.2z"/>
		<radialGradient id="SVGID_26_" cx="247.6678" cy="93.9423" r="11.6799" gradientUnits="userSpaceOnUse">
			<stop  offset="0" style="stop-color:#F6E38A"/>
			<stop  offset="0.2598" style="stop-color:#F3E088"/>
			<stop  offset="0.4446" style="stop-color:#EBD781"/>
			<stop  offset="0.6062" style="stop-color:#DDC776"/>
			<stop  offset="0.7544" style="stop-color:#CAB166"/>
			<stop  offset="0.8922" style="stop-color:#B19552"/>
			<stop  offset="1" style="stop-color:#98793E"/>
		</radialGradient>
		<path class="st26" d="M258.8,106.1c0,0,0.3-19-22.2-24.4C236.6,81.7,233.8,100.5,258.8,106.1z"/>
		<radialGradient id="SVGID_27_" cx="246.7554" cy="73.728" r="11.7217" gradientUnits="userSpaceOnUse">
			<stop  offset="0" style="stop-color:#F6E38A"/>
			<stop  offset="0.2598" style="stop-color:#F3E088"/>
			<stop  offset="0.4446" style="stop-color:#EBD781"/>
			<stop  offset="0.6062" style="stop-color:#DDC776"/>
			<stop  offset="0.7544" style="stop-color:#CAB166"/>
			<stop  offset="0.8922" style="stop-color:#B19552"/>
			<stop  offset="1" style="stop-color:#98793E"/>
		</radialGradient>
		<path class="st27" d="M261,82.2c0,0-6.6-16.8-28.5-16.9C232.5,65.3,236.9,82.4,261,82.2z"/>
		<radialGradient id="SVGID_28_" cx="234.5702" cy="54.8639" r="11.7834" gradientUnits="userSpaceOnUse">
			<stop  offset="0" style="stop-color:#F6E38A"/>
			<stop  offset="0.2598" style="stop-color:#F3E088"/>
			<stop  offset="0.4446" style="stop-color:#EBD781"/>
			<stop  offset="0.6062" style="stop-color:#DDC776"/>
			<stop  offset="0.7544" style="stop-color:#CAB166"/>
			<stop  offset="0.8922" style="stop-color:#B19552"/>
			<stop  offset="1" style="stop-color:#98793E"/>
		</radialGradient>
		<path class="st28" d="M249.8,61.4c0,0-9.5-15.4-30.4-13.2C219.4,48.2,226.7,64.2,249.8,61.4z"/>
		<radialGradient id="SVGID_29_" cx="219.5864" cy="36.0955" r="10.9634" gradientUnits="userSpaceOnUse">
			<stop  offset="0" style="stop-color:#F6E38A"/>
			<stop  offset="0.2598" style="stop-color:#F3E088"/>
			<stop  offset="0.4446" style="stop-color:#EBD781"/>
			<stop  offset="0.6062" style="stop-color:#DDC776"/>
			<stop  offset="0.7544" style="stop-color:#CAB166"/>
			<stop  offset="0.8922" style="stop-color:#B19552"/>
			<stop  offset="1" style="stop-color:#98793E"/>
		</radialGradient>
		<path class="st29" d="M234.3,39.7c0,0-11.8-12.1-29.4-7.4C204.9,32.3,215,45.1,234.3,39.7z"/>
		<radialGradient id="SVGID_30_" cx="200.593" cy="21.7439" r="10.9649" gradientUnits="userSpaceOnUse">
			<stop  offset="0" style="stop-color:#F6E38A"/>
			<stop  offset="0.2598" style="stop-color:#F3E088"/>
			<stop  offset="0.4446" style="stop-color:#EBD781"/>
			<stop  offset="0.6062" style="stop-color:#DDC776"/>
			<stop  offset="0.7544" style="stop-color:#CAB166"/>
			<stop  offset="0.8922" style="stop-color:#B19552"/>
			<stop  offset="1" style="stop-color:#98793E"/>
		</radialGradient>
		<path class="st30" d="M215.3,25.3c0,0-11.8-12.1-29.4-7.4C185.9,17.9,196,30.8,215.3,25.3z"/>
	</g>
</g>
</svg>
