<?xml version="1.0" encoding="utf-8"?>
<!-- Generator: Adobe Illustrator 23.0.2, SVG Export Plug-In . SVG Version: 6.00 Build 0)  -->
<svg version="1.1" id="Capa_1" xmlns="http://www.w3.org/2000/svg" xmlns:xlink="http://www.w3.org/1999/xlink" x="0px" y="0px"
	 viewBox="0 0 100 100" style="enable-background:new 0 0 100 100;" xml:space="preserve">
<style type="text/css">
	.st0{fill:#0E8C38;}
	.st1{fill:#16152D;stroke:#16152D;stroke-miterlimit:10;}
</style>
<path class="st0" d="M93.5,57.3c1.9-2.1,2.1-5.3,0.4-7.5L93,48.6c-0.3-0.5-0.3-1.1,0.1-1.5l1.3-1.5c1.9-2.1,2.1-5.3,0.4-7.5
	c-0.9-1.2-2.3-1.9-3.8-1.9H79.4c0.7-2.2,1-6.4,1-11.7v-2.9c0-4.3-3.5-7.9-7.9-7.9s-7.9,3.5-7.9,7.9v2.9c0,2.8-0.7,11.7-8.5,11.7
	H44.7v46.5h43.5c1.5,0,2.9-0.7,3.8-1.9l0.3-0.4c1.6-2.1,1.6-5,0-7.1l-1.1-1.5c-0.3-0.5-0.3-1.1,0.1-1.5l1.3-1.5
	c1.9-2.1,2.1-5.3,0.4-7.5l-0.8-1.1c-0.3-0.5-0.3-1.1,0.1-1.5L93.5,57.3z M70.4,31.7c-2.2,0-3.9-1.8-3.9-3.9s1.8-3.9,3.9-3.9
	s3.9,1.8,3.9,3.9S72.6,31.7,70.4,31.7z"/>
<path class="st1" d="M41.3,86.3H19.2c-3.1,0-5.6-2.3-5.8-5.4L10,38.7c-0.3-3.2,2.3-6,5.6-6h25.8c1.8,0,3.3,1.5,3.3,3.3v47
	C44.6,84.8,43.2,86.3,41.3,86.3z"/>
</svg>
