<?xml version="1.0" encoding="utf-8"?>
<!-- Generator: Adobe Illustrator 23.0.2, SVG Export Plug-In . SVG Version: 6.00 Build 0)  -->
<svg version="1.1" id="Calque_1" xmlns="http://www.w3.org/2000/svg" xmlns:xlink="http://www.w3.org/1999/xlink" x="0px" y="0px"
	 viewBox="0 0 100 100" style="enable-background:new 0 0 100 100;" xml:space="preserve">
<style type="text/css">
	.st0{fill:none;stroke:#D21217;stroke-width:3.5063;stroke-miterlimit:10;}
	.st1{fill:#D21217;}
	.st2{fill:#D21217;stroke:#FFFFFF;stroke-width:2.805;stroke-miterlimit:10;}
	.st3{enable-background:new    ;}
	.st4{fill:#FFFFFF;}
</style>
<g>
	<path class="st0" d="M67,5.8H32.9c-2.9,0-5.4,2.4-5.4,5.4v64.7c0,2.9,2.4,5.4,5.4,5.4h48.5c2.9,0,5.4-2.4,5.4-5.4v-50L67,5.8z"/>
	<path class="st1" d="M67,5.8v14.6c0,2.9,2.4,5.4,5.4,5.4h14.4L67,5.8z"/>
	<path class="st2" d="M53.2,51.2H24.6c-5.5,0-10-4.5-10-10v-6.8c0-5.5,4.5-10,10-10h28.6c5.5,0,10,4.5,10,10v6.8
		C63.2,46.7,58.7,51.2,53.2,51.2z"/>
	<g class="st3">
		<path class="st4" d="M28.9,42.1v-8.5h3.5c0.4,0,0.7,0.1,1,0.2c0.3,0.2,0.6,0.4,0.8,0.6c0.2,0.3,0.4,0.5,0.5,0.9
			c0.1,0.3,0.2,0.6,0.2,1c0,0.3-0.1,0.7-0.2,1c-0.1,0.3-0.3,0.6-0.5,0.9c-0.2,0.2-0.5,0.4-0.8,0.6c-0.3,0.2-0.6,0.2-1,0.2h-2.7v3.1
			H28.9z M29.7,38.2h2.7c0.2,0,0.5-0.1,0.7-0.2s0.4-0.3,0.5-0.4c0.1-0.2,0.3-0.4,0.3-0.6s0.1-0.5,0.1-0.7c0-0.3,0-0.5-0.1-0.7
			c-0.1-0.2-0.2-0.4-0.4-0.6c-0.2-0.2-0.3-0.3-0.5-0.4c-0.2-0.1-0.4-0.1-0.7-0.1h-2.6V38.2z"/>
		<path class="st4" d="M36.3,42.1v-8.5h2.9c0.7,0,1.3,0.1,1.8,0.3c0.5,0.2,0.9,0.5,1.3,0.9c0.3,0.4,0.6,0.8,0.8,1.3s0.3,1.1,0.3,1.6
			c0,0.6-0.1,1.2-0.3,1.7s-0.5,1-0.8,1.3c-0.4,0.4-0.8,0.7-1.3,0.9c-0.5,0.2-1.1,0.3-1.7,0.3H36.3z M42.4,37.8c0-0.5-0.1-1-0.2-1.4
			s-0.4-0.8-0.6-1.1c-0.3-0.3-0.6-0.6-1-0.7c-0.4-0.2-0.9-0.3-1.4-0.3h-2v7h2c0.5,0,1-0.1,1.4-0.3c0.4-0.2,0.7-0.4,1-0.7
			c0.3-0.3,0.5-0.7,0.6-1.1C42.3,38.8,42.4,38.3,42.4,37.8z"/>
		<path class="st4" d="M44.8,42.1v-8.5h5.6v0.7h-4.7v3.1h4v0.7h-4v3.9H44.8z"/>
	</g>
	<polygon class="st2" points="64.9,73.7 64.9,57 48.3,57 48.3,73.7 39.9,73.7 56.9,94.8 73.9,73.7 	"/>
</g>
</svg>
