<?xml version="1.0" encoding="utf-8"?>
<!-- Generator: Adobe Illustrator 23.0.2, SVG Export Plug-In . SVG Version: 6.00 Build 0)  -->
<svg version="1.1" id="Calque_1" xmlns="http://www.w3.org/2000/svg" xmlns:xlink="http://www.w3.org/1999/xlink" x="0px" y="0px"
	 viewBox="0 0 100 100" style="enable-background:new 0 0 100 100;" xml:space="preserve">
<style type="text/css">
	.st0{fill:#28B096;}
</style>
<g>
	<path class="st0" d="M85.5,6.2H16.1c-5.2,0-9.5,6-9.5,13.5v63c0,7.5,4.2,13.5,9.5,13.5h69.4c5.2,0,9.5-6,9.5-13.5v-63
		C95,12.2,90.8,6.2,85.5,6.2z M88.7,58.3L88.7,58.3L68.8,30c-1.2-1.8-3.2-1.8-4.5,0L38.2,67.3L27.8,52.5c-1.2-1.8-3.2-1.8-4.5,0
		L13,67.3V19.7c0-2.5,1.4-4.5,3.2-4.5h69.4c1.7,0,3.2,2,3.2,4.5V58.3z"/>
</g>
</svg>
