<?xml version="1.0" encoding="utf-8"?>
<!-- Generator: Adobe Illustrator 23.0.3, SVG Export Plug-In . SVG Version: 6.00 Build 0)  -->
<svg version="1.1" id="Calque_1" xmlns="http://www.w3.org/2000/svg" xmlns:xlink="http://www.w3.org/1999/xlink" x="0px" y="0px"
	 viewBox="0 0 100 100" style="enable-background:new 0 0 100 100;" xml:space="preserve">
<style type="text/css">
	.st0{fill:#000000;}
</style>
<g>
	<path class="st0" d="M81.4,10H18.6c-4.7,0-8.6,5.4-8.6,12v56c0,6.6,3.8,12,8.6,12h62.9c4.7,0,8.6-5.4,8.6-12V22
		C90,15.4,86.2,10,81.4,10z M84.3,56.3L84.3,56.3l-18-25.2c-1.1-1.6-2.9-1.6-4,0L38.6,64.3l-9.4-13.2c-1.1-1.6-2.9-1.6-4,0
		l-9.4,13.2V22c0-2.2,1.3-4,2.9-4h62.9c1.6,0,2.9,1.8,2.9,4V56.3z"/>
</g>
</svg>
