<?xml version="1.0" encoding="utf-8"?>
<!-- Generator: Adobe Illustrator 23.0.3, SVG Export Plug-In . SVG Version: 6.00 Build 0)  -->
<svg version="1.1" id="Calque_1" xmlns="http://www.w3.org/2000/svg" xmlns:xlink="http://www.w3.org/1999/xlink" x="0px" y="0px"
	 viewBox="0 0 100 100" style="enable-background:new 0 0 100 100;" xml:space="preserve">
<style type="text/css">
	.st0{fill:#B31A25;}
</style>
<path class="st0" d="M55,9.5c-2.2-3-5.9-3-8.1,0L11.8,57.4c-2.2,3-1.2,4.4,2.3,3L29,54.5c3.5-1.4,5.6,0.5,4.5,4.1l-7.7,27.7
	c-1,3.6,1.2,6.7,5,6.7h41.3c3.8,0,6-3,5-6.7l-7.7-27.6c-1-3.6,1-5.5,4.5-4.1l13.9,5.6c3.5,1.4,4.5,0.1,2.3-3L55,9.5z"/>
</svg>
