<?xml version="1.0" encoding="utf-8"?>
<!-- Generator: Adobe Illustrator 23.0.2, SVG Export Plug-In . SVG Version: 6.00 Build 0)  -->
<svg version="1.1" id="Calque_1" xmlns="http://www.w3.org/2000/svg" xmlns:xlink="http://www.w3.org/1999/xlink" x="0px" y="0px"
	 viewBox="0 0 100 100" style="enable-background:new 0 0 100 100;" xml:space="preserve">
<g>
	<path d="M46.5,6c17.4,0,32.7,10,39.8,25.2l5-10.3l6.3,3L87.2,45.3L65.8,35l3-6.3L80,34.1C74,21.4,61.1,13,46.5,13
		c-20.4,0-37,16.6-37,37s16.6,37,37,37c12,0,23.4-5.9,30.3-15.7l5.7,4C74.2,87,60.8,94,46.5,94c-24.3,0-44-19.7-44-44S22.2,6,46.5,6
		z"/>
</g>
</svg>
