<?xml version="1.0" encoding="utf-8"?>
<!-- Generator: Adobe Illustrator 23.0.2, SVG Export Plug-In . SVG Version: 6.00 Build 0)  -->
<svg version="1.1" id="Calque_1" xmlns="http://www.w3.org/2000/svg" xmlns:xlink="http://www.w3.org/1999/xlink" x="0px" y="0px"
	 viewBox="0 0 500 150" style="enable-background:new 0 0 500 150;" xml:space="preserve">
<style type="text/css">
	.st0{fill:#16162D;}
</style>
<g>
	<rect x="249" y="66" class="st0" width="7.5" height="29.5"/>
	<rect x="249" y="54.4" class="st0" width="7.5" height="7.5"/>
	<path class="st0" d="M272.6,89.3c-0.5,0.2-1,0.2-1.5,0.2c-1,0-1.7-0.3-2.3-0.9c-0.5-0.6-0.8-1.4-0.8-2.5V54.4h-7.5v34.3
		c0,2.3,0.6,4.1,1.9,5.4c1.3,1.3,3.1,1.9,5.5,1.9c1.1,0,2.3-0.1,3.7-0.4c1.4-0.3,2.5-0.6,3.5-1.1l-1-5.7
		C273.7,89,273.1,89.2,272.6,89.3z"/>
	<path class="st0" d="M215.7,81.3c-0.9-0.7-2.1-1.3-3.5-1.8c-1.4-0.5-3.2-1.1-5.2-1.6c-1.1-0.3-2-0.5-2.7-0.8
		c-0.7-0.2-1.3-0.5-1.8-0.8c-0.5-0.3-0.8-0.6-1-0.9c-0.2-0.3-0.3-0.8-0.3-1.3c0-1.2,0.4-2,1.3-2.5c0.9-0.5,1.9-0.8,3.2-0.8
		c1.4,0,2.7,0.3,4.1,0.8l2.8-4.9c-0.2-0.1-0.4-0.2-0.7-0.2c-1.9-0.6-4-1-6.2-1c-1.7,0-3.2,0.2-4.6,0.7c-1.4,0.5-2.6,1.1-3.7,1.9
		c-1.1,0.8-1.9,1.9-2.4,3.1c-0.6,1.2-0.9,2.6-0.9,4.1c0,1.1,0.2,2.1,0.6,2.9c0.4,0.8,1,1.5,1.8,2.1c0.8,0.6,1.9,1.2,3.3,1.7
		c1.4,0.5,3,1,4.9,1.5c2.3,0.6,3.9,1.2,5,1.7c1,0.5,1.5,1.3,1.5,2.3c0,1.1-0.4,1.9-1.3,2.4c-0.9,0.6-2,0.8-3.5,0.8
		c-1.7,0-3.4-0.3-5.1-1c-1.7-0.7-3.5-1.6-5.3-2.9l-2.8,4.7c1.7,1.5,3.7,2.6,6.1,3.4s4.8,1.2,7.3,1.2c3.7,0,6.6-0.8,8.7-2.5
		c2.1-1.7,3.2-4,3.2-6.8c0-1.2-0.2-2.3-0.6-3.2C217.3,82.7,216.6,81.9,215.7,81.3z"/>
	<path class="st0" d="M311.1,81.3c-0.9-0.7-2.1-1.3-3.5-1.8c-1.4-0.5-3.2-1.1-5.2-1.6c-1.1-0.3-2-0.5-2.7-0.8
		c-0.7-0.2-1.3-0.5-1.8-0.8c-0.5-0.3-0.8-0.6-1-0.9c-0.2-0.3-0.3-0.8-0.3-1.3c0-1.2,0.4-2,1.3-2.5c0.9-0.5,1.9-0.8,3.2-0.8
		c1.4,0,2.7,0.3,4.1,0.8l2.8-4.9c-0.2-0.1-0.4-0.2-0.7-0.2c-1.9-0.6-4-1-6.2-1c-1.7,0-3.2,0.2-4.6,0.7s-2.6,1.1-3.7,1.9
		c-1.1,0.8-1.9,1.9-2.4,3.1c-0.6,1.2-0.9,2.6-0.9,4.1c0,1.1,0.2,2.1,0.6,2.9c0.4,0.8,1,1.5,1.8,2.1c0.8,0.6,1.9,1.2,3.3,1.7
		c1.4,0.5,3,1,4.9,1.5c2.3,0.6,3.9,1.2,5,1.7c1,0.5,1.5,1.3,1.5,2.3c0,1.1-0.4,1.9-1.3,2.4c-0.9,0.6-2,0.8-3.5,0.8
		c-1.7,0-3.4-0.3-5.1-1c-1.7-0.7-3.5-1.6-5.3-2.9l-1.9,3.1l-0.2-1.2c-0.5,0.2-1,0.4-1.5,0.6c-0.5,0.2-1,0.2-1.5,0.2
		c-1,0-1.7-0.3-2.3-0.9c-0.5-0.6-0.8-1.4-0.8-2.5V54.4h-7.5v34.3c0,2.3,0.6,4.1,1.9,5.4c1.3,1.3,3.1,1.9,5.5,1.9
		c1.1,0,2.3-0.1,3.7-0.4c1.4-0.3,2.5-0.6,3.5-1.1l-0.3-1.8c1.4,0.9,2.9,1.7,4.7,2.3c2.4,0.8,4.8,1.2,7.3,1.2c3.7,0,6.6-0.8,8.7-2.5
		c2.1-1.7,3.2-4,3.2-6.8c0-1.2-0.2-2.3-0.6-3.2C312.7,82.7,312,81.9,311.1,81.3z"/>
	<polygon class="st0" points="241.9,72.9 236.5,69.8 228,79.4 228,54.4 220.4,54.4 220.4,95.6 228,95.6 228,86.8 232,82.8 
		240.6,95.6 248.6,95.6 236.9,78.6 	"/>
	<path class="st0" d="M403,86.3v-9.2c0-3.9-1.2-7-3.5-9c-2.1-1.9-5.1-2.9-8.8-3.1c0,0,0,0.1-0.1,0.1l-3,5.1c0.4,0,0.8-0.1,1.2-0.1
		c2.2,0,3.8,0.5,4.9,1.6c1.1,1.1,1.7,2.6,1.7,4.5V78c-1-0.4-2.1-0.7-3.4-1c-1.3-0.2-2.5-0.3-3.9-0.3c-1.8,0-3.5,0.2-5.1,0.7
		c-1.5,0.5-2.9,1.1-4,1.9c-1.1,0.8-2,1.8-2.6,3c-0.6,1.2-0.9,2.5-0.9,3.9c0,1.4,0.3,2.6,0.8,3.7s1.2,2.1,2.1,3s2,1.5,3.2,2
		c1.2,0.5,2.6,0.7,4,0.7c2.1,0,4.1-0.5,6-1.4c1.9-0.9,3.5-2.2,4.8-3.9l0.2,1.6c0.2,1.1,0.7,1.9,1.4,2.5c0.8,0.6,1.9,1,3.3,1
		c0.9,0,2-0.1,3.3-0.4v-6.4c-0.6,0-1.1-0.2-1.4-0.6C403.1,87.7,403,87.1,403,86.3z M395.4,85.4c0,0.8-0.4,1.5-1.2,2.1
		c-0.6,0.8-1.5,1.4-2.7,1.8c-1.1,0.5-2.4,0.7-3.6,0.7c-1.4,0-2.6-0.4-3.6-1.3c-1-0.8-1.5-1.9-1.5-3.2c0-1.4,0.6-2.5,1.9-3.4
		c1.2-0.9,2.8-1.3,4.8-1.3c1,0,2,0.1,3,0.3c1.1,0.2,2,0.5,2.9,0.8V85.4z"/>
	<path class="st0" d="M372.1,68.6c-0.7-1.1-1.6-2-2.8-2.6c-1.2-0.7-2.8-1-4.7-1c-2.3,0-4.3,0.5-6.2,1.5c-1.9,1-3.3,2.5-4.4,4.4V53.9
		h-7.5V95h7.5V77.8c0.3-0.9,0.7-1.7,1.2-2.5c0.6-0.8,1.2-1.4,1.9-1.9c0.7-0.5,1.4-1,2.1-1.3c0.8-0.3,1.5-0.5,2.1-0.5
		c1.6,0,2.8,0.6,3.7,1.7c0.9,1.1,1.3,2.8,1.3,5.2V95h7.5V76.6c0-1.5-0.1-2.9-0.4-4.3C373.2,70.9,372.8,69.7,372.1,68.6z"/>
	<path class="st0" d="M423.1,87.5c-0.4,0.2-1.1,0.4-1.8,0.7c-0.8,0.3-1.5,0.4-2.3,0.4s-1.5-0.2-2-0.6c-0.5-0.4-0.8-1.2-0.8-2.2V71.3
		h6.2v-5.8h-6.2v-9.6h-7.5v9.6h-3.9v5.8h3.9v16.9c0,1.3,0.2,2.4,0.6,3.4c0.4,0.9,1,1.7,1.7,2.3c0.7,0.6,1.5,1,2.4,1.3
		c0.9,0.3,1.9,0.4,3,0.4c1.6,0,3.2-0.2,4.6-0.7c1.5-0.5,2.7-0.9,3.7-1.4L423.1,87.5z"/>
	<path class="st0" d="M334.9,88.1c-1.1,0.7-2.4,1-3.7,1c-1.1,0-2-0.2-3-0.6c-0.9-0.4-1.8-1-2.4-1.8c-0.7-0.8-1.2-1.7-1.7-2.8
		c-0.4-1.1-0.6-2.3-0.6-3.6c0-1.3,0.2-2.5,0.6-3.6c0.4-1.1,0.9-2,1.6-2.8c0.7-0.8,1.5-1.4,2.4-1.8c0.9-0.4,2-0.6,3-0.6
		c1,0,1.9,0.2,2.8,0.5l3.4-5.9c-1.8-0.7-3.8-1-6.1-1c-2.4,0-4.6,0.4-6.5,1.2c-1.9,0.8-3.5,1.9-4.9,3.3c-1.4,1.4-2.4,3-3.1,4.8
		c-0.7,1.8-1.1,3.8-1.1,5.9c0,2,0.4,4,1.1,5.8c0.7,1.9,1.8,3.5,3.1,4.9c1.4,1.4,3,2.5,4.9,3.4c1.9,0.8,4.1,1.2,6.5,1.2
		c3.3,0,6.1-0.7,8.4-2.1c2.3-1.4,4-3.3,5-5.5l-7.4-2.3C336.9,86.6,336.1,87.4,334.9,88.1z"/>
	<path class="st0" d="M128.8,25c-29.6,0-53.5,21.5-53.5,47.8c0,13.9,6.6,26.4,17.4,35.2l-4.6,15.5c-0.2,0.9,0.6,1.7,1.5,1.5
		l21.4-7.2c5.6,1.8,11.7,2.7,17.9,2.7c29.6,0,53.5-21.4,53.5-47.8C182.3,46.5,158.5,25,128.8,25z M141.7,39.5c1.8,0,3.3,1.4,3.3,3.4
		c0,1.8-1.5,3.3-3.3,3.3c-1.9,0-3.3-1.5-3.3-3.4C138.4,40.9,139.9,39.5,141.7,39.5z M128.1,46.7c1.5-0.9,3.1-1.1,4.9-1
		c4,0.4,7.4,2.2,10.5,4.5c0.7,0.5,1.4,1.1,1.9,1.7c1.6,1.8,1.9,3.8,0.9,6c-0.6,1.4-1.6,2.5-2.6,3.6c-2.4,2.4-5.2,4.3-8.1,6.1
		c-1.5,0.9-3,1.7-4.6,2.5c-0.3,0.1-0.4,0.1-0.5-0.2c-1.9-4.6-3.4-9.3-4.4-14.1c-0.3-1.4-0.6-2.7-0.6-4.1
		C125.6,49.6,126.3,47.8,128.1,46.7z M97,57.8c0-1.9,1.5-3.3,3.4-3.3c1.8,0,3.3,1.4,3.3,3.4c0,1.8-1.5,3.3-3.3,3.3
		C98.5,61.1,97,59.6,97,57.8z M105.5,73.9c-2.1-1-3-2.7-3.2-4.9c-0.2-2.3,0.5-4.4,1.5-6.4c1.4-2.9,3.4-5.3,5.7-7.4
		c1.3-1.1,2.8-1.8,4.5-1.4c1.2,0.2,2.2,0.8,3.1,1.5c1.8,1.5,3.1,3.3,4.3,5.2c2.1,3.3,3.7,6.9,5,10.6c0.1,0.3,0,0.4-0.2,0.4
		c-3.1,0.9-6.3,1.7-9.5,2.2c-2.6,0.4-5.2,0.7-7.3,0.8C107.7,74.6,106.6,74.4,105.5,73.9z M114.7,104.5c-1.9,0-3.3-1.5-3.3-3.4
		c0-1.9,1.5-3.3,3.4-3.3c1.8,0,3.3,1.4,3.3,3.4C118,103,116.5,104.5,114.7,104.5z M130.1,97c-1.2,1.3-2.7,1.8-4.3,1.8
		c-2.4,0.1-4.6-0.5-6.7-1.5c-2.5-1.1-4.6-2.7-6.6-4.6c-0.9-0.9-1.6-1.9-1.9-3.1c-0.3-1.4,0-2.7,0.7-3.9c1-1.7,2.4-3.1,3.9-4.3
		c3.1-2.6,6.7-4.5,10.3-6.2c0.5-0.2,1-0.4,1.5-0.7c0.3-0.1,0.4-0.1,0.5,0.2c0.7,1.8,1.3,3.7,1.8,5.6c1.1,3.7,1.9,7.5,2.3,11.4
		c0,0.3,0,0.7,0,0.9C131.6,94.3,131.2,95.8,130.1,97z M148,91.2c-1.1,0.9-2.3,1.5-3.8,1.5c-1.1,0-2.1-0.4-3-1.1
		c-1.7-1.2-3-2.8-4.1-4.6c-2.2-3.4-3.7-7.1-5.1-11c-0.1-0.4-0.3-0.8-0.4-1.2c-0.2-0.5-0.2-0.5,0.3-0.6c1.9-0.5,3.7-0.9,5.6-1.2
		c3.8-0.7,7.7-1.1,11.5-1.1c1.1,0,2.2,0.1,3.2,0.6c2.1,0.8,3.1,2.4,3.4,4.6c0,0.3,0,0.6,0.1,0.8c-0.1,2.8-1.1,5.1-2.5,7.4
		C151.8,87.5,150.1,89.5,148,91.2z M157.4,92.3c-1.9,0-3.3-1.5-3.3-3.4c0-1.9,1.5-3.3,3.4-3.3c1.8,0,3.3,1.4,3.3,3.4
		C160.8,90.8,159.3,92.3,157.4,92.3z"/>
</g>
</svg>
