<?xml version="1.0" encoding="utf-8"?>
<!-- Generator: Adobe Illustrator 23.0.2, SVG Export Plug-In . SVG Version: 6.00 Build 0)  -->
<svg version="1.1" id="Capa_1" xmlns="http://www.w3.org/2000/svg" xmlns:xlink="http://www.w3.org/1999/xlink" x="0px" y="0px"
	 viewBox="0 0 100 100" style="enable-background:new 0 0 100 100; opacity: 0.2;" xml:space="preserve">
<style type="text/css">
	.st0{fill-rule:evenodd;clip-rule:evenodd;fill:url(#SVGID_1_);}
	.st1{fill-rule:evenodd;clip-rule:evenodd;fill:url(#SVGID_2_);}
	.st2{fill-rule:evenodd;clip-rule:evenodd;fill:url(#SVGID_3_);}
	.st3{fill-rule:evenodd;clip-rule:evenodd;fill:#F3B038;}
	.st4{fill-rule:evenodd;clip-rule:evenodd;fill:#EF9F2F;}
	.st5{fill-rule:evenodd;clip-rule:evenodd;fill:url(#SVGID_4_);}
	.st6{fill:#E9948A;}
	.st7{fill:#9EC226;}
	.st8{fill:#252732;}
	.st9{opacity:0.2;fill:#252732;}
	.st10{fill-rule:evenodd;clip-rule:evenodd;fill:url(#SVGID_5_);}
	.st11{fill-rule:evenodd;clip-rule:evenodd;fill:#16162D;}
	.st12{fill-rule:evenodd;clip-rule:evenodd;fill:#E4A176;}
	.st13{fill-rule:evenodd;clip-rule:evenodd;fill:#783C28;}
	.st14{fill-rule:evenodd;clip-rule:evenodd;fill:#251818;}
	.st15{fill-rule:evenodd;clip-rule:evenodd;fill:#472C28;}
	.st16{fill-rule:evenodd;clip-rule:evenodd;fill:#54352E;}
	.st17{fill-rule:evenodd;clip-rule:evenodd;fill:#652C17;}
	.st18{fill-rule:evenodd;clip-rule:evenodd;fill:#AB1919;}
	.st19{fill-rule:evenodd;clip-rule:evenodd;fill:#1A1B21;}
	.st20{fill-rule:evenodd;clip-rule:evenodd;fill:#252732;}
	.st21{fill-rule:evenodd;clip-rule:evenodd;fill:#D89369;}
	.st22{fill-rule:evenodd;clip-rule:evenodd;fill:#8FA822;}
	.st23{fill-rule:evenodd;clip-rule:evenodd;fill:#D3DDE5;}
	.st24{fill-rule:evenodd;clip-rule:evenodd;fill:#E9948A;}
	.st25{fill-rule:evenodd;clip-rule:evenodd;fill:#D0796C;}
	.st26{fill-rule:evenodd;clip-rule:evenodd;}
	.st27{fill-rule:evenodd;clip-rule:evenodd;fill:#9EC226;}
	.st28{fill-rule:evenodd;clip-rule:evenodd;fill:#F19C6D;}
	.st29{fill-rule:evenodd;clip-rule:evenodd;fill:#F5B37F;}
	.st30{fill:#F5B37F;}
	.st31{fill:#F19C6D;}
	.st32{fill:#381C16;}
	.st33{fill:#4F3D37;}
	.st34{fill:#796A65;}
	.st35{opacity:0.65;fill:#4F3D37;}
	.st36{fill:#ED8E61;}
	.st37{fill:url(#SVGID_6_);}
	.st38{fill:url(#SVGID_7_);}
	.st39{clip-path:url(#SVGID_9_);fill:#FCFBF3;}
	.st40{clip-path:url(#SVGID_9_);fill:url(#SVGID_10_);}
	.st41{fill:#3E3029;}
	.st42{clip-path:url(#SVGID_12_);fill:#FCFBF3;}
	.st43{clip-path:url(#SVGID_12_);fill:url(#SVGID_13_);}
	.st44{fill:#6A3C3E;}
	.st45{fill:#E48856;}
	.st46{fill:#FFFFFF;}
	.st47{fill-rule:evenodd;clip-rule:evenodd;fill:#E89D6F;}
	.st48{clip-path:url(#SVGID_15_);fill:#825137;}
	.st49{fill:#0D0D15;}
	.st50{fill:#825137;}
	.st51{opacity:0.2;fill:#825137;}
	.st52{fill:#8B6345;}
	.st53{opacity:0.65;fill:#8B6345;}
	.st54{clip-path:url(#SVGID_17_);fill:#FFFFFF;}
	.st55{clip-path:url(#SVGID_17_);fill:url(#SVGID_18_);}
	.st56{clip-path:url(#SVGID_17_);fill:#393939;}
	.st57{fill:#393939;}
	.st58{clip-path:url(#SVGID_20_);fill:#FFFFFF;}
	.st59{clip-path:url(#SVGID_20_);fill:url(#SVGID_21_);}
	.st60{clip-path:url(#SVGID_20_);fill:#393939;}
	.st61{fill:#E25094;}
	.st62{opacity:0.5;fill:#4D505C;}
	.st63{fill:#F7EBD4;}
	.st64{fill:#EFEADA;}
	.st65{fill:#FAC00F;}
	.st66{fill:#E9DAC4;}
	.st67{fill:#FAF6EF;}
	.st68{fill:#F3EBEB;}
	.st69{fill:#734533;}
	.st70{fill:url(#SVGID_22_);}
	.st71{fill:#212626;}
	.st72{fill:#333D3D;}
	.st73{fill:url(#SVGID_23_);}
	.st74{opacity:0.25;fill:#403D3D;}
</style>
<g>

		<linearGradient id="SVGID_1_" gradientUnits="userSpaceOnUse" x1="30.691" y1="32.3433" x2="46.4391" y2="22.3375" gradientTransform="matrix(1 0 0 -1 0 99.89)">
		<stop  offset="0" style="stop-color:#FBD048"/>
		<stop  offset="1" style="stop-color:#F0A02F"/>
	</linearGradient>
	<path class="st0" d="M41.5,28.7c-3.1,3.7-0.2,7.9,0.5,14c0.7,5.7,0.5,9.1-0.8,12.1c-1,2.2-1.1,4.1-4.9,7.1l-3.6,3.3l-0.7,8.2
		l-2.2,5.6l-3.6,3.3c0,0-4.2,9.4-4.9,9.8c-0.7,0.4-11,5.2-13.4,5.5v1.1h44.6l4.5-11.2l-3.2-25L50,43.4L41.5,28.7z"/>

		<linearGradient id="SVGID_2_" gradientUnits="userSpaceOnUse" x1="35.8074" y1="50.3756" x2="88.8938" y2="12.9306" gradientTransform="matrix(1 0 0 -1 0 99.89)">
		<stop  offset="0" style="stop-color:#FBD048"/>
		<stop  offset="1" style="stop-color:#F8BB23"/>
	</linearGradient>
	<path class="st1" d="M69.1,28.1l-16.5-2.2l-5.2,0.5l-5.1,1.4l-1.7,2.6c0.4,1.4,3.6,6.8,4.3,9c0.7,2.2,0.8,3,1.6,4.8
		c0.9,2,3.1,4.7,3,9.9c0,3.4-1.8,5.5-2.9,9.5c-0.9,3.1-1.8,18.6-2.8,22.1c-2,6.4-5.3,8.5-7.8,13h0.2h55.1V41.1
		C83,32.4,80.5,32.3,69.1,28.1z"/>

		<linearGradient id="SVGID_3_" gradientUnits="userSpaceOnUse" x1="26.2741" y1="24.1826" x2="66.9575" y2="33.6753" gradientTransform="matrix(1 0 0 -1 0 99.89)">
		<stop  offset="0" style="stop-color:#FBD048"/>
		<stop  offset="1" style="stop-color:#F0A02F"/>
	</linearGradient>
	<path class="st2" d="M73.8,74.6c-3.1-4.3-4.8-9.7-6.3-14.3c-1-3.3-3.8-2.6-7.4-6.6l-5.4-6l-7-4.6l-5.2-9c0.8,2.7,2.6,8.9,3.6,10.7
		c1.6,2.8,2.7,5.2,2.7,9.4c0,3.4-1.9,5.2-3.1,9.2c-0.9,3.1-0.7,20.4-4,25.1c-2.3,3.2-9.9,6.1-15.8,7.9c-2.2,0.6-4.1,0.8-5.5,1.3v1.1
		h70.4v-7.5C85.1,88.2,80.4,83.7,73.8,74.6z"/>
	<g>
		<polygon class="st3" points="55.6,61.3 52.3,63.1 49,64.6 50.2,68.4 49.8,73.2 51.1,69.8 51.2,65.5 		"/>
		<polygon class="st3" points="62.8,60.5 61.4,64.5 59.9,66.5 60.3,69.1 60.9,70.3 61.1,73.9 60,76.1 57.4,79.5 55,81.8 57.4,80.7
			62.2,77.1 64.4,73.7 63.8,69.3 62,67.3 63,65 63.6,60.3 62.5,56.5 		"/>
		<polygon class="st3" points="47.5,65.4 47,69.7 44,74.5 46.5,78.9 48.8,81.5 48.8,86.2 50.5,80.8 48.4,78 46.7,73.4 47.8,70.4
			"/>
		<polygon class="st3" points="53,47.8 52.1,50.5 50.9,53 53.2,54.4 55.1,57.1 54.3,54.7 52.6,52.3 		"/>
		<polygon class="st3" points="73.7,73.8 70.2,77.7 63.8,80 63.2,86.7 63.9,91.3 60.7,96.1 66.3,92 66,87.4 67.5,81.3 70.6,79 		"/>
		<polygon class="st3" points="44.1,65.3 40.8,67.2 37.5,68.7 38.7,72.4 38.4,77.2 39.7,73.8 39.8,69.6 		"/>
	</g>
	<g>
		<polygon class="st3" points="21,89.7 20.3,88.4 19.4,87.9 18.2,88.3 17.2,89.1 15.3,91.2 14.1,96 18.4,94 21.7,92.5 		"/>
		<polygon class="st4" points="19.4,87.9 20.3,88.4 21.2,89.4 21.8,90.8 21.7,92.5 18.8,93.3 20.8,92.2 20.2,91.1 20.5,89.7
			20,88.7 		"/>
	</g>
	<g>

			<linearGradient id="SVGID_4_" gradientUnits="userSpaceOnUse" x1="56.6429" y1="6.5346" x2="61.414" y2="5.6609" gradientTransform="matrix(1 0 0 -1 0 99.89)">
			<stop  offset="0" style="stop-color:#FBD048"/>
			<stop  offset="1" style="stop-color:#F8BB23"/>
		</linearGradient>
		<polygon class="st5" points="61.3,92.4 60.3,89.9 58.8,88.8 56.6,89.2 54.5,90.4 53.4,92.8 53.7,97.5 56.6,98.3 62,97.6 		"/>
		<polygon class="st3" points="58.8,88.8 60.2,89.8 61.7,91.8 62.6,94.6 62,97.6 56.7,98.3 60.4,96.8 59.7,94.7 60.3,92.3
			59.7,90.4 		"/>
	</g>
</g>
<g>
	<path class="st6" d="M49.3,63.1c0.2,0.1,0.3,0.1,0.5,0c0.2-0.2,0-0.5-0.2-0.7c-0.2-0.2-0.5-0.4-0.7-0.7l-0.5,0.9
		C48.8,62.8,49.1,63,49.3,63.1z"/>
	<g>
		<g>
			<path class="st7" d="M49.3,63.2c0.1-0.1,0.2-0.2,0.3-0.3c0.1-0.1,0.1-0.3,0-0.4c0,0,0,0,0,0c0,0,0-0.1,0-0.1c0-0.1,0-0.1,0-0.2
				c0,0,0.1-0.2,0.3-0.2c0.2,0,0.7-0.2,0.8-0.4c0.1-0.1,0.5-0.4,0.7-0.5c0,0,0.1,0,0.1,0c0,0,0,0,0,0c0.1,0,0.1,0,0.2,0
				c0,0,0,0,0.1,0c0.1,0.1,0.2,0.2,0.2,0.4c0,0.4-0.2,0.7-0.4,0.8c-0.2,0.1-0.5,0.3-0.6,0.5c-0.1,0.2-0.4,0.8-0.9,0.8
				c0,0-0.1,0-0.2-0.1c0,0-0.1-0.1-0.1-0.1C49.5,63.4,49.4,63.2,49.3,63.2z"/>
			<path class="st8" d="M50,63.7c0.4,0,0.7-0.6,0.9-0.8c0.1-0.2,0.4-0.4,0.6-0.5c0.2-0.1,0.4-0.5,0.4-0.8c0-0.2-0.1-0.3-0.2-0.4
				c0.3,0.4,0,0.8-0.2,1c-0.2,0.2-0.5,0.4-0.7,0.6c-0.1,0.2-0.2,0.4-0.5,0.7c-0.2,0.2-0.4,0.2-0.5,0.2C49.9,63.7,50,63.7,50,63.7z"
				/>
		</g>
		<path class="st9" d="M49.3,63.2c0.1-0.1,0.2-0.2,0.3-0.3c0,0,0-0.1,0-0.1c0.1,0.1,0.3,0.2,0.4,0.3c0.3,0,0.4-0.4,0.6-0.6
			c0.2-0.2,0.9-0.6,0.9-0.9c0.1-0.3,0.1-0.4-0.1-0.5c0.1,0,0.1,0,0.2,0c0,0,0,0,0.1,0c0.1,0.1,0.2,0.2,0.2,0.4
			c0,0.4-0.2,0.7-0.4,0.8c-0.2,0.1-0.5,0.3-0.6,0.5c-0.1,0.2-0.4,0.8-0.9,0.8c0,0-0.1,0-0.2-0.1c0,0-0.1-0.1-0.1-0.1
			C49.5,63.4,49.4,63.2,49.3,63.2z"/>
	</g>
	<path class="st6" d="M45.2,70.2c0.1,0.1,0.3,0.3,0.5,0.2c0.3-0.1,0.2-0.5,0.1-0.8c-0.1-0.3-0.3-0.6-0.4-0.9l-0.9,0.5
		C44.6,69.6,45,70,45.2,70.2z"/>
	<g>
		<g>
			<path class="st7" d="M44.8,69.9c0.1,0,0.3,0,0.4,0c0.1,0,0.3-0.1,0.3-0.3c0,0,0,0,0,0c0,0,0-0.1,0.1-0.1c0,0,0.1-0.1,0.1-0.1
				c0,0,0.2,0,0.3,0.1c0.1,0.2,0.6,0.4,0.8,0.4c0.1,0,0.6,0.2,0.8,0.3c0,0,0.1,0,0.1,0.1c0,0,0,0,0,0c0,0,0.1,0.1,0.1,0.2
				c0,0,0,0,0,0.1c0,0.1,0,0.3-0.2,0.4c-0.3,0.2-0.7,0.2-0.9,0.2c-0.2-0.1-0.5-0.2-0.8-0.1c-0.2,0-0.9,0.2-1.1-0.2
				c0,0-0.1-0.1-0.1-0.3c0,0,0-0.1,0-0.1C44.8,70.2,44.8,70,44.8,69.9z"/>
			<path class="st8" d="M44.9,70.7c0.2,0.4,0.9,0.2,1.1,0.2c0.2,0,0.6,0.1,0.8,0.1c0.2,0.1,0.6,0,0.9-0.2c0.1-0.1,0.2-0.3,0.2-0.4
				C47.8,71,47.2,71,46.9,71c-0.3,0-0.6-0.2-0.9-0.2c-0.2,0-0.4,0.1-0.8,0c-0.2,0-0.4-0.2-0.5-0.3C44.8,70.7,44.9,70.7,44.9,70.7z"
				/>
		</g>
		<path class="st9" d="M44.8,69.9c0.1,0,0.3,0,0.4,0c0,0,0.1,0,0.1,0c0,0.1,0,0.3,0,0.5c0.1,0.2,0.5,0.1,0.8,0.1
			c0.3,0.1,1,0.3,1.3,0.2c0.3-0.1,0.4-0.2,0.3-0.4c0,0,0.1,0.1,0.1,0.2c0,0,0,0,0,0.1c0,0.1,0,0.3-0.2,0.4c-0.3,0.2-0.7,0.2-0.9,0.2
			c-0.2-0.1-0.5-0.2-0.8-0.1c-0.2,0-0.9,0.2-1.1-0.2c0,0-0.1-0.1-0.1-0.3c0,0,0-0.1,0-0.1C44.8,70.2,44.8,70,44.8,69.9z"/>
	</g>
	<linearGradient id="SVGID_5_" gradientUnits="userSpaceOnUse" x1="40.886" y1="30.7872" x2="60.8128" y2="34.5154">
		<stop  offset="0" style="stop-color:#FBD048"/>
		<stop  offset="1" style="stop-color:#F0A02F"/>
	</linearGradient>
	<path class="st10" d="M44.6,33.3l7.2-4.2c0.8-0.4,1.9-0.7,2.8-0.2c0.8,0.4,2,1.2,2.6,1.5c0.4,0.2,1.9,1.1,1,1.6
		c-2.6,1.4-5.1,3-7.7,4.5c-0.5,0.3-1.2,0.4-2,0.3c-0.8-0.1-1.6-0.3-2.2-0.6c-0.4-0.3-0.9-0.5-1.3-0.7C44.3,35,44,34.6,44,34.2
		C43.9,33.9,44.1,33.6,44.6,33.3z"/>
	<path class="st11" d="M46.2,45.7c0.5-2.7-0.2-5.5-0.8-7.9c-0.8-3.2-1.5-5.8,1-7.1c1.5-0.7,3.8-1.8,5.6-2.4c0.6-0.2,1.3-0.4,1.9-0.4
		c0.5,0,0.9,0,1.1,0.2c1.1,0.7,1.4,2.1,0.6,2.7c0.5-0.6,0.3-1.2-0.4-1.9c-0.2-0.2-0.4-0.3-0.5-0.4c-0.2-0.1-0.4-0.1-0.8-0.1
		c-0.6,0-1.3,0.2-1.8,0.4c-1.8,0.6-4.1,1.6-5.6,2.3c-2.1,1.1-1.5,3.5-0.7,6.4c0.6,2.4,1.4,5.3,0.8,8.1
		C46.6,46.3,46.1,46.3,46.2,45.7z"/>
	<path class="st12" d="M44,16.6c-0.3,0.3-0.4,1.2-0.6,1.5c-0.2,0.4-0.6,1-1,1.1c0.1,0-0.5-0.3-0.5-0.4c0.1-0.5,0.1-1,0.2-1.5
		c0.3-0.9,0.9-0.7,1.1-1.2L44,16.6z"/>
	<path class="st13" d="M48.4,13.4c0.2-0.3,0.3-0.6,0.2-1c-0.2-1.5-0.5-3.3-1-4.6c-0.5-1.1-1.3-1.7-1.8-1.4c-0.5,0.2-0.8,1-0.6,1.7
		c0.4,1.5,0.9,2.9,1.4,4.3c-0.8,0.8-2.3,2.5-2.8,3.2c-0.1,0.1-0.1,0.3-0.2,0.4c0,0.1-0.1,0.2-0.2,0.3c0.2,0.3,0.3,0.4,0.6,0.6
		c0.1-0.1,0.2-0.2,0.3-0.2c0.1-0.1,0.4,0,0.5-0.1C45.4,16.1,47.8,14.1,48.4,13.4L48.4,13.4L48.4,13.4z"/>
	<path class="st14" d="M55,23.2c0,0,0.1,0.1,0.2,0.1c0.1,0.6,0.2,0.8,0.1,0.9c0,0,0,0-0.1,0.1c-0.1,0.2,0.4,1,0.4,1.2
		c0,0.2,0,0.4-0.1,0.6c-0.2,0.3-0.5,0.7-0.8,0.9c-0.3,0.2-0.6,0.3-0.8,0.2c-0.3-0.1-0.2-0.3-0.1-0.6c0-0.1,0.2-0.2,0.2-0.3
		c0-0.5-0.3-1-0.4-1.4c-0.2-0.4-0.4-0.6-0.6-0.8c-0.3-0.4-0.3-0.7,0.1-0.9c0.1,0,0.5-0.3,0.6-0.3C54.1,23.1,54.6,23,55,23.2z"/>
	<path class="st15" d="M45.4,20.1c-0.3,0.5-0.2,1,0.2,1.3l0,0l0,0c0,0,0.1,0,0.1,0.1c0.5,0.2,1.2,0.5,1.7,0.7
		c1.8,0.7,4.6,1.5,5.8,2.2c0.6-0.3,0.9-1,0.6-1.4c-1.3-1-3.1-2.2-3.8-2.7c-0.2-0.1-0.4-0.2-0.7-0.2c1.4-0.9,2.9-1.8,3.6-2.7
		c0.5-0.6,0.7-1.6,1.1-2.2c-2.1,0.2-2.2-1.1-2.5-1.5c-0.4,0.4-0.4,0.3-0.8,0.7c-1.4,1.5-3.4,3.5-4.8,5
		C45.7,19.6,45.5,19.8,45.4,20.1z"/>
	<path class="st14" d="M49.9,30.2c0.2,0.4-0.9,2.2-1.2,2.6c-0.2,0.3-0.2,0.6,0.2,0.6c0.3,0.1,0.9-0.3,1.2-0.5c0.6-0.4,0.8-0.9,1-1.1
		l0.2,0c0.1-0.1,0.7-0.5,0.7-0.7c0-0.1-0.1-0.4-0.1-0.6c-0.2-0.6-0.3-0.4-0.6-0.8C50.8,30,51,30.2,49.9,30.2z"/>
	<path class="st16" d="M47.6,22.9c0.5,1.7,1.9,5.7,2.3,7.4c0.6,0.3,1.3,0,1.5-0.5c-0.2-1.6-0.5-4.2-0.7-5.1c-0.1-0.6-0.5-1.4-0.8-2
		c1.5-1.5,3.9-3.7,4.8-5.2c1.1-2,0.5-3.3-0.5-4.2c-0.4-0.3-0.9,0-1-0.3c-0.7,0.9-1.4,2.1-1.9,3.2c-0.7,1.6-3.3,4.7-3.6,5.8
		c-0.1,0.2-0.1,0.5,0,0.7C47.6,22.8,47.6,22.9,47.6,22.9z"/>
	<path class="st17" d="M45.8,6.3c-1,0.6-0.8,1.9-0.3,2.8c1,1.9,2.1,2.9,3.4,4.2c0.4,0.4,0.9,0.8,1.4,1.2c0.9,0.7,3.9,0.6,4.5-0.4
		c0,0-0.2-0.4-0.2-0.5c0-0.4-0.1-0.8-0.2-1.1c-0.7-1.6-1.6-3.3-2.4-4.5c-0.5-0.9-1.1-1.4-2-1.6C49.4,6.2,46.6,5.8,45.8,6.3z"/>
	<path class="st18" d="M47,8.4c0,1,0.3,1.6,0.7,2.1c1.4,1.5,1.6,1.9,2.2,3.9c-0.1,0.4-0.4,0.9-0.6,1.2c-0.4-0.6-0.6-0.9-0.9-1.2
		c0.1-1.1-0.7-2.3-1.3-3.2c-0.4-0.7-0.8-1.6-0.5-2.9c-0.2-0.4-0.3-0.5-0.2-0.6c0.1-0.1,0.1,0,0.4-0.1c0.2,0,0.5-0.1,0.5,0.1
		C47.3,8,47.3,8.2,47,8.4z"/>
	<path class="st12" d="M46.5,7.4c0,0-0.1-0.1-0.1-0.1c-0.1-0.1-0.3-0.5-0.6-0.8L47,5.3l0.2-0.3c0.1,0.6,0.5,1,0.8,1.3
		c0.3,0.5-0.7,1.1-1.3,1.4C46.7,7.7,46.6,7.6,46.5,7.4z"/>
	<path class="st13" d="M46.8,7.8c-0.1-0.1-0.1-0.2-0.2-0.4c-0.1-0.1-0.3-0.4-0.3-0.5c-0.1,0.1,0,0.8,0,1.2C46.4,8,46.5,7.9,46.8,7.8
		z"/>
	<path class="st13" d="M48,6.3c0.2,0.5-0.6,1.2-1.2,1.5C47,8,47.3,8.1,47.3,8.3c0.4-0.3,1-0.7,1.2-1.3C48.5,6.6,48.3,6.4,48,6.3z"/>
	<path class="st19" d="M42,61.1c-1.4-0.1-2.9-0.1-5,0c-1,0-1.1-0.2-1.6-0.5l-1.4,0.5c-0.6,1.8-0.3,4.3,2.5,4.1
		c1.3-0.1,3-1.4,5.2-1.7c0,0.4,0.1,0.8,0.4,1.5c0.5,1.1,1.5,2.7,2.4,4.5c0.2,0.2,0.9,0.2,1.2-0.1c-0.5-1.9-1-3.7-1.5-5.6
		c-0.2-0.6-0.3-1.6-0.5-2C43.3,61.2,42.6,61.2,42,61.1z"/>
	<path class="st20" d="M43.5,61.5c1.1,0.4,3,0.7,4.9,1.3c0.1,0,0.8-0.2,0.9-0.9c-2-1-3.8-2-5.5-3.1c-0.8-0.5-1.4-1.2-2.2-0.7
		c-1.8,0.8-2.7,1.4-4.3,2.6c-0.8,0.6,0-1.6-0.9-0.3c-1.1,0.5-1.9,0.8-1.3,1.8c0.2,1.8,1.2,2.6,1.8,2.7c1,0.3,1.9-0.3,2.2-0.6
		c1-0.8,1.5-2.4,3-3.8C42.4,60.9,42.7,61.2,43.5,61.5z"/>
	<path class="st21" d="M37,51.8c0-0.6-0.3-0.7-0.3-1.2c0-0.1,0-0.1,0-0.2c0-0.3,0.1-0.6,0.3-0.9l0.8,0.3c0.4,1.1,0.2,1.1-0.1,2.3
		l-0.6,0.1L37,51.8z"/>
	<path class="st22" d="M36.7,56.1c-0.2,0.1-0.4,0.2-0.5,0.3c-0.9,0.5-2.7,1.3-3.2,1.3c-0.3,0-0.7,0.1-1.1-0.4
		c-0.4-0.5-0.1-1,0.2-1.2c1-0.7,2.6-0.9,3.6-1.2c0.1-0.2,0.1-0.4,0.2-0.7c0.2-0.6,0.4-1.5,0.7-2c0.1-0.1,0.2-0.2,0.2-0.3l0.1-0.3
		c0.3-0.2,0.9,0.1,0.9,0.3c0,0.1,0,0.1-0.1,0.2c0,0.1,0.1,0.3,0,0.4c-0.1,0.6-0.7,3-1.1,3.4C36.8,56.1,36.8,56.1,36.7,56.1z"/>
	<path class="st23" d="M33.1,57.8c0.6,0.6,1.9,0.5,1.8,0.3c-0.2-0.5-0.5-0.9-0.7-1.2C34.1,57.6,33.2,57.4,33.1,57.8z"/>
	<path class="st22" d="M31.8,55.7c-0.1,0.5-0.1,0.7,0.1,1.2c0.3,0.9,0.8,1.4,1.2,2.4c0.1,0.3-0.1,1.5,0.4,1.8l0.1,0.3
		c0.9,0.5,3.3,0.2,3.7-0.7c-0.1-0.2,0-0.3-0.1-0.4c0.1-0.3-0.2-0.6-0.2-0.8c-0.3-1.2-0.3-1.7-0.3-2.3c0-0.3,0.2-0.9,0.1-1.3
		c-0.1-0.6-0.7-0.9-1.4-1.1c-1.8-0.6-2.2-1.1-3-0.8C31.8,54.3,31.9,55.5,31.8,55.7z"/>
	<path class="st24" d="M32.8,55.6c0.2,0.4,1.5-0.7,1.3-1.1C34.1,54.3,34,54,34,53.8c0.3,0,0.7-0.1,0.7-0.1c0.1-0.1-0.1-0.8-0.3-1.1
		c-0.2-0.2-0.3-0.3-0.4-0.4c-0.1-0.2-0.1-0.4-0.4-0.6c-0.7-0.7-2.3-0.5-2.7,0.7c-0.3,0.7,0.1,1.3,0.5,1.8c0.3,0.3,0.7,0.3,1,0.5
		C32.8,54.7,32.8,55.2,32.8,55.6z"/>
	<path class="st25" d="M34.7,53.6c0,0.1-0.4,0.3-0.7,0.3c0.1,0.4,0,0.4,0.2,0.9c-0.4-0.4-0.4-0.3-1.6-0.1c-0.1-0.1-0.2-0.2-0.2-0.3
		c-0.3-0.1-0.7-0.2-1-0.5C31.3,53.4,33,53.3,34.7,53.6z"/>
	<g>
		<path class="st26" d="M33.7,53.7c-0.3-0.2-0.4-0.6-0.2-0.6c0.1,0,0.3-0.4,0.3-0.7c0.1-0.6-0.1-1.4-0.7-1.6
			c-0.5-0.2-1.1-0.1-1.6,0.1c-0.6,0.3-1,0.6-1.2,1.4c-0.1,0.4-0.1,0.7,0,1.1c0.1,0.7,0.5,1.5,0.4,2.1c-0.2,1.4-0.7,2.7,1.2,3.5
			c1,0.5,1.3,0.6,1,1.8c2.1-0.3,2.4-2.2,1.8-2.7c-1.5-1.3-0.4-1.5-0.4-3.2C34.4,54.2,33.9,53.9,33.7,53.7z"/>
		<g>
			<path class="st26" d="M33.5,53.1c0-0.1-0.1-0.2-0.1-0.1c0,0-0.1,0.2,0,0.3c0.1,0.2,0.3,0.4,0.4,0.2c-0.1,0.1-0.2-0.1-0.3-0.2
				C33.5,53.2,33.5,53.1,33.5,53.1z"/>
			<path class="st26" d="M33.5,53.2c0.1,0.1,0.1,0.1,0.1,0.1c0,0,0,0.1-0.1,0C33.5,53.3,33.5,53.2,33.5,53.2z"/>
		</g>
	</g>
	<path class="st11" d="M45.7,15c-1.8,1.5-3.2,3.8-4.3,6.3c-1.5,3.4-2.4,7.3-2.8,10.2c-0.6,4.5-0.7,9.1-0.7,13c0,1.6,0,3.2-0.1,4.5
		c-0.1,3.5,0.1,8,0.3,12.6c0.1,2.9,0.3,5.9,0.3,8.8c0,1.9,0.1,3.9,0.2,6c0.2,4.2,0.3,8.7,0.2,12.9c0,0.1,0,0.3,0,0.4
		c0,0.6,0,1.3-0.2,2c2-0.7,5.6-1.3,7.2,0.5c0.3,0.3,0.4,0.7,0.5,1c0,0.4-0.1,0.7-0.3,1c-1.3,1.9-8.3,2.5-9.5,1.1
		c-0.3-0.3-0.3-0.6-0.2-1c0.1-0.3,0.3-0.7,0.7-1.1c-0.9,0.6-1.8,1.8-1.2,2.9c0.2,0.3,0.6,0.6,1.2,0.8c3.9,1.1,12.3-0.4,15.3-0.8
		c0.4-0.1,0.5,0.5,0.1,0.6c-3,0.4-11.6,1.9-15.5,0.8c-0.9-0.2-1.4-0.6-1.7-1.1c-1-1.9,0.9-3.6,2.6-4.3c0.4-0.2,0.5-1.9,0.5-2.3
		c0-0.2,0-0.3,0-0.4c0.2-4.2,0-8.6-0.2-12.9c-0.1-2.1-0.2-4.1-0.2-6c-0.1-2.9-0.2-5.9-0.3-8.8c-0.2-4.6-0.4-9.1-0.3-12.6
		c0.1-1.4,0.1-2.9,0.1-4.5c0-4,0.1-8.5,0.7-13.1c0.4-3,1.3-6.9,2.9-10.4c1.1-2.6,2.6-4.9,4.4-6.4l0,0l0,0c0,0,0.1-0.1,0.1-0.1l0,0
		l0.4-0.3c0.4-0.3,0.8-0.5,1.2-0.7c2.7-1.5,5.1,2.3,5.6,4.4c0.6,2.2,0.7,5,0.9,7.6c0.1,0.8,0.1,1.6,0.2,2.4c0,0.4,0.1,0.8,0.1,1.3
		c0.1,0.9,0.3,1.7,0.5,2.1c0.2,0.3,0.4,0.4,0.6,0.2c0.3-0.2,0.6-0.4,0.8-0.7c0.4-0.5,0.3-1.1,0.1-1.6c-0.3-0.5-0.7-0.9-1.1-1.1
		c0.1,0,0.2,0.1,0.3,0.1c0.7,0.4,1.4,1.2,1.4,2c0,0.8-0.6,1.3-1.2,1.7c-0.6,0.3-1.1,0.2-1.4-0.4c-0.3-0.5-0.4-1.3-0.6-2.3
		c-0.1-0.4-0.1-0.9-0.1-1.3c-0.1-0.7-0.1-1.5-0.2-2.4c-0.2-2.5-0.3-5.3-0.9-7.5c-0.5-1.8-2.5-5.3-4.9-4c-0.4,0.2-0.8,0.5-1.2,0.8
		L45.7,15L45.7,15z M38.2,92.6c-0.2,0.3-0.4,0.6-0.7,0.9c-0.4,0.4-0.7,0.8-0.7,1.1c0,0.2,0,0.3,0.1,0.5c0.9,1,7.4,0.5,8.5-1.1
		c0.1-0.2,0.2-0.4,0.2-0.6c0-0.2-0.1-0.4-0.3-0.6C43.8,91.1,40.1,91.9,38.2,92.6z"/>
	<path class="st24" d="M36.9,49.7c0-0.1,0.5-0.6,0.5-0.6c0.2,0.2,0.1,0.3-0.1,0.8c-0.1,0.5,0.4,1.1-0.2,1.5
		c-0.1-0.4-0.3-0.5-0.3-0.8C36.7,50.3,36.8,49.8,36.9,49.7z"/>
	<path class="st24" d="M38,50.7l-0.3-0.6c-0.4-0.2-0.5-0.4-0.5-0.6c-0.1-0.2-0.1-0.4-0.1-0.8l0.1-0.5c0.1,0,0.2,0,0.2,0.4
		c0,0.2,0.1,0.4,0.1,0.5c0.1-0.3,0.3-0.4,0.3-0.6c0.1-0.1,0.1-1,0.1-1.3c0.2,0.1,0.4,1.1,0.5,1.3c0.1,0.1,0.1,0.3,0.1,0.5
		c0,0.3,0,0.6,0,1l0.2,0.5L38,50.7z"/>
	<path class="st27" d="M38.2,53.5c-0.1-0.6-0.3-1.7-0.3-2.5c0-0.2,0-0.3,0-0.5l-0.1-0.3c0.1-0.2,0.6-0.3,0.8-0.3
		c0,0.1,0.1,0.2,0.1,0.3c0,0.1,0.2,0.3,0.2,0.4c0.3,0.8,0.7,2,0.7,2.7c0,0.7,0,0.9-0.6,1.3c-0.7,0.5-2.7,1.7-3.3,1.7
		c-0.7,0.1-1.3-0.9-0.9-1.5C35.5,53.9,37.2,54,38.2,53.5z"/>
	<path class="st28" d="M42.8,17.6c0,0.1-0.2,0.3-0.2,0.5c0,0.3-0.1,0.5-0.3,0.5c-0.1-0.3,0-0.4-0.1-0.6c0-0.1,0.1-0.7,0.2-1
		c0.1-0.2,0.6-0.3,0.9-0.7C43.8,17,42.8,17.5,42.8,17.6z"/>
	<g>
		<path class="st29" d="M45.9,16.4c-0.4,0.1-0.9,1-1.2,1.3c-0.3,0.3-1.4,0.7-1.7,0.6c0.2-0.1,0.9-1.5,1-1.7c0.1-0.2-0.1-0.2-0.1-0.2
			c0.6-0.7,1.1-0.3,1.5-0.6L45.9,16.4z"/>
		<path class="st29" d="M44.2,16.7c-0.1,0-0.3,0-0.4,0.1c-0.2,0.2-0.4,0.3-0.6,0.1c0.2-0.2,0.3-0.3,0.4-0.4c0.1,0,0.6-0.4,0.9-0.4
			c0.2-0.1,0.3,0,0.7-0.1C45.4,16.8,44.2,16.7,44.2,16.7z"/>
	</g>
	<path class="st13" d="M45.3,15.8c0.1,0.4,0.3,0.5,0.5,0.7c0.1-0.1,0.2-0.1,0.3-0.2c0.1,0,0.4,0,0.5,0c0.8-0.3,3.4-2.1,3.9-2.7
		c0.7-0.7-0.3-2.6-1.4-1.5c-0.8,0.5-2.9,2.4-3.5,3.1c-0.1,0.1-0.1,0.3-0.2,0.3C45.5,15.7,45.4,15.8,45.3,15.8z"/>
	<path class="st13" d="M50.4,13.8c0.3-0.2,0.5-0.4,0.5-0.8c0.4-1.4,0.7-3.3,0.6-4.7c-0.1-2.3-2.2-2.1-2.4-0.6
		c-0.2,1.8-0.2,3.5-0.1,5.4C49,13.6,49.4,13.8,50.4,13.8z"/>
	<g>
		<path class="st30" d="M46.7,7c-0.4,0.2-0.8,0.3-1.1,0.1C45.4,7,45,6.8,44.9,6.6c-0.1-0.1-0.1-0.3-0.2-0.4c0-0.3-0.3-1.5-0.4-1.7
			C44.2,4.2,44,3.9,44,3.6c0-0.4,0.3-0.5,0.6-0.8c0.2-0.2,0.6-0.5,0.9-0.4c0.1,0,0.2,0.1,0.3,0.1c0.1,0,0.2,0,0.3,0
			c0.2,0,0.4,0.1,0.6,0.3c0.1,0.2,0.5,0.3,0.6,0.6c0.1,0.4,0.4,1.8,0.4,2.2c0,0.4-0.2,0.8-0.4,1.1C47,6.7,46.8,6.9,46.7,7z"/>
		<path class="st31" d="M46.9,4.9c0-0.4,0-1.1-0.3-1.5c-0.5-0.6-1.3-0.2-1.5-0.1c-0.4,0.1-1,0.2-1,0.9C44.1,4,44,3.8,44,3.6
			c0-0.4,0.3-0.5,0.6-0.8c0.2-0.2,0.6-0.5,0.9-0.4c0.1,0,0.2,0.1,0.3,0.1c0.1,0,0.2,0,0.3,0c0.2,0,0.4,0.1,0.6,0.3
			c0.1,0.2,0.5,0.3,0.6,0.6c0.1,0.3,0.2,1.1,0.3,1.6c-0.2,0.1-0.4,0.2-0.6,0.4C46.9,5.2,46.9,5,46.9,4.9z"/>
		<path class="st32" d="M46.2,2.3C46.1,2.8,46.1,3,45.7,3c-0.2,0-0.8,0.2-1,0.3c-0.2,0.1-0.3,0.1-0.5,0.3C44.2,3.6,44,3.7,44.1,4
			c-0.3-0.1-0.3-0.5-0.3-0.7c0.1-0.1,0.5-0.4,0.7-0.4c0.2-0.1,0.5,0,0.6,0c0.2,0,0.2-0.2,0.4-0.2C45.8,2.6,46.1,2.6,46.2,2.3z"/>
		<path class="st33" d="M44,2.4c0.3-0.6,1-0.7,1.5-0.6c0.2,0,1.1,0.4,1.3,0.5C46.7,2.8,46.1,3,45.6,3c-0.2,0-0.5,0-0.7-0.1
			c-0.2,0-0.4,0-0.5,0.1c-0.5,0.5-0.2,1.1-0.2,1.1c-0.2,0.1-0.7-0.1-0.8-0.5C43.3,3.2,43.7,3.2,44,2.4z"/>
		<path class="st34" d="M44.1,2.2c0.1-0.2,0.3-0.3,0.5-0.4c0.1,0.1,0.3,0.2,0.3,0.3c0.1,0.2,0.1,0.4,0.3,0.5c0,0,0.1,0.1,0.1,0.1
			c0.1,0.1,0.2,0.2,0.2,0.3c0,0,0,0,0,0c0,0,0,0,0,0c-0.2,0-0.5,0-0.7-0.1c0,0,0,0-0.1,0c-0.1,0-0.3-0.1-0.3-0.2c0,0,0,0,0,0
			C44.4,2.5,44.3,2.4,44.1,2.2z"/>
		<path class="st33" d="M47,3.7c0.1,0.2,0.1,1,0,1.3c-0.1,0.2-0.1,0.8,0.3,0.7c0.3,0,0.7-0.5,0.9-0.7c0.2-0.4,0.2-0.7,0-1.1
			c-0.1-0.2-0.9-1.5-1.1-1.6C46.8,2.1,46,2,46.2,2.8C46.2,2.7,46.8,3.3,47,3.7z"/>
		<path class="st34" d="M47,5c0.1-0.3,0.1-1,0.1-1.3c0.1,0,0.2,0,0.2-0.1c0.2-0.1,0.4-0.2,0.6-0.4c0.2,0.3,0.3,0.6,0.4,0.6
			c0.1,0.3,0.2,0.6,0,1.1c-0.1,0.3-0.5,0.7-0.9,0.7C46.9,5.8,46.9,5.3,47,5z"/>
		<path class="st35" d="M47.2,5.3c0.1-0.2,0.2-0.3,0.2-0.5c0,0,0-0.1,0-0.2c0.1,0.1,0.2,0,0.2,0c0.1,0.1,0.2,0.1,0.4,0.6
			c-0.2,0.2-0.5,0.5-0.7,0.5c-0.2,0-0.3-0.1-0.4-0.2C47.1,5.5,47.2,5.4,47.2,5.3z"/>
		<path class="st34" d="M44.7,5.8c0.3,0,0.7-0.1,1-0.2c0.3-0.1,0.7-0.4,0.9-0.6c0.2-0.1,0.8-0.2,0.8-0.2c0.7,1.1-0.3,2-0.5,2.2
			c-0.5,0.3-1.3,0.6-1.8,0.2C44.6,6.8,44.6,6.2,44.7,5.8z"/>
		<g>
			<path class="st30" d="M47.4,4.9c0,0-0.2-0.7-0.2-0.8c0-0.1,0.2-0.5,0.5-0.2C48.1,4.3,48,4.8,47.4,4.9z"/>
			<path class="st36" d="M47.6,4c0,0-0.2,0-0.3,0.1c0,0.1,0,0.7,0.2,0.6c0.2-0.1,0.3-0.2,0.1-0.3c-0.1-0.2-0.2-0.2-0.1-0.3
				C47.5,4.1,47.7,4,47.6,4z"/>
		</g>
		<path class="st33" d="M45.4,3.4c0,0-0.1,0.1,0,0.1c0,0.1,0.1,0.3,0.2,0.3c0.1,0,0.5-0.3,1-0.2c0,0,0-0.2-0.3-0.3
			C46,3.2,45.6,3.3,45.4,3.4z"/>
		<path class="st33" d="M44.7,3.7C44.7,3.7,44.7,3.7,44.7,3.7c0.1,0.1,0.3,0.3,0.1,0.4c-0.1,0-0.5,0.3-0.6,0.4c0,0-0.1-0.2,0.1-0.5
			C44.4,3.9,44.5,3.8,44.7,3.7z"/>

			<radialGradient id="SVGID_6_" cx="-519.0414" cy="58.9814" r="0.2937" gradientTransform="matrix(-0.8675 0.4974 0.4974 0.8675 -434.6055 212.435)" gradientUnits="userSpaceOnUse">
			<stop  offset="0" style="stop-color:#F4A685"/>
			<stop  offset="0.5034" style="stop-color:#F4A984"/>
			<stop  offset="0.8953" style="stop-color:#F5B37F"/>
			<stop  offset="0.8984" style="stop-color:#F5B37F"/>
		</radialGradient>
		<path class="st37" d="M44.7,5.6c0.1,0.1,0.2,0.1,0.4,0.1c0.2-0.1,0.3-0.2,0.2-0.4c-0.1-0.1-0.2-0.1-0.4-0.1
			C44.7,5.3,44.6,5.5,44.7,5.6z"/>

			<radialGradient id="SVGID_7_" cx="-498.8958" cy="118.8709" r="0.3407" gradientTransform="matrix(-0.7919 0.6106 0.6106 0.7919 -421.3404 215.3285)" gradientUnits="userSpaceOnUse">
			<stop  offset="0" style="stop-color:#F4A685"/>
			<stop  offset="0.5034" style="stop-color:#F4A984"/>
			<stop  offset="0.8953" style="stop-color:#F5B37F"/>
			<stop  offset="0.8984" style="stop-color:#F5B37F"/>
		</radialGradient>
		<path class="st38" d="M46,5.1c0.1,0.1,0.3,0.1,0.5,0c0.2-0.1,0.3-0.3,0.2-0.4c-0.1-0.1-0.3-0.1-0.5,0C46,4.7,45.9,4.9,46,5.1z"/>
		<g>
			<g>
				<g>
					<defs>
						<path id="SVGID_8_" d="M46.5,4.1c0,0-0.2-0.2-0.6,0c-0.3,0.2-0.1,0.5-0.1,0.5s0.2,0.2,0.5-0.1C46.5,4.2,46.5,4.1,46.5,4.1z"/>
					</defs>
					<clipPath id="SVGID_9_">
						<use xlink:href="#SVGID_8_"  style="overflow:visible;"/>
					</clipPath>
					<path class="st39" d="M46.5,4.1c0,0-0.2-0.2-0.6,0c-0.3,0.2-0.1,0.5-0.1,0.5s0.2,0.2,0.5-0.1C46.5,4.2,46.5,4.1,46.5,4.1z"/>

						<radialGradient id="SVGID_10_" cx="-520.6604" cy="58.9184" r="0.4643" gradientTransform="matrix(-0.8675 0.4974 0.4974 0.8675 -434.6055 212.435)" gradientUnits="userSpaceOnUse">
						<stop  offset="0" style="stop-color:#827774"/>
						<stop  offset="1" style="stop-color:#402D26"/>
					</radialGradient>
					<path class="st40" d="M45.9,4.4c0.1,0.1,0.3,0.2,0.4,0.1c0.1-0.1,0.2-0.2,0.1-0.4C46.3,4,46.1,3.9,46,4
						C45.9,4.1,45.8,4.3,45.9,4.4z"/>
				</g>
				<path class="st41" d="M46,4.1c-0.2,0.1-0.2,0.4-0.2,0.4l0,0c0,0-0.2-0.3,0.2-0.5c0.3-0.2,0.5,0.1,0.5,0.1s0,0,0,0
					C46.5,4.1,46.3,4,46,4.1z"/>
			</g>
		</g>
		<g>
			<g>
				<g>
					<defs>
						<path id="SVGID_11_" d="M45.1,4.7c0,0-0.2-0.2-0.5-0.1S44.5,5,44.5,5S44.7,5.2,45,5C45.1,4.8,45.1,4.7,45.1,4.7z"/>
					</defs>
					<clipPath id="SVGID_12_">
						<use xlink:href="#SVGID_11_"  style="overflow:visible;"/>
					</clipPath>
					<path class="st42" d="M45.1,4.7c0,0-0.2-0.2-0.5-0.1S44.5,5,44.5,5S44.7,5.2,45,5C45.1,4.8,45.1,4.7,45.1,4.7z"/>

						<radialGradient id="SVGID_13_" cx="-519.17" cy="58.7238" r="0.4064" gradientTransform="matrix(-0.8675 0.4974 0.4974 0.8675 -434.6055 212.435)" gradientUnits="userSpaceOnUse">
						<stop  offset="0" style="stop-color:#827774"/>
						<stop  offset="1" style="stop-color:#402D26"/>
					</radialGradient>
					<path class="st43" d="M44.6,4.9C44.7,5.1,44.9,5.1,45,5C45.1,5,45.1,4.8,45,4.7c-0.1-0.1-0.2-0.2-0.3-0.1
						C44.6,4.7,44.6,4.8,44.6,4.9z"/>
				</g>
				<path class="st41" d="M44.7,4.7C44.5,4.8,44.5,5,44.5,5c0,0-0.2-0.3,0.1-0.5c0.3-0.2,0.5,0.1,0.5,0.1s0,0,0,0
					C45.1,4.7,44.9,4.6,44.7,4.7z"/>
			</g>
		</g>
		<path class="st44" d="M44.3,4.6c0,0,0.5-0.2,0.7-0.3c0,0,0.1,0,0.1,0.1c0,0,0,0,0,0.1c0.1-0.2,0.3-0.2,0.4-0.1c0-0.1,0-0.2,0-0.2
			c0,0,0.8-0.3,1-0.4c0,0,0.1,0,0.1,0.1c0,0.2,0.1,0.6,0.2,0.6c0,0.1-1,0.5-1.1,0.4c-0.1-0.1-0.1-0.2-0.2-0.4c-0.1,0-0.2,0-0.3,0
			c-0.1,0-0.1,0.1-0.1,0.1c0.1,0.2,0.1,0.4,0.1,0.4c0,0.1-0.7,0.4-0.8,0.3C44.4,5.1,44.3,4.8,44.3,4.6C44.2,4.6,44.3,4.6,44.3,4.6z
			 M45.7,4.7c0.1,0.1,0.9-0.3,0.9-0.3c0,0-0.1-0.4-0.1-0.5c0,0,0-0.1-0.1-0.1c-0.2,0.1-0.8,0.3-0.8,0.3C45.5,4.2,45.6,4.6,45.7,4.7z
			 M44.5,5.2c0.1,0.1,0.7-0.2,0.6-0.2c0,0-0.1-0.3-0.2-0.5c0,0,0-0.1-0.1,0c-0.2,0-0.6,0.2-0.6,0.2C44.3,4.7,44.4,5.1,44.5,5.2z"/>
		<g>
			<path class="st45" d="M45.4,5.4c0,0,0-0.3-0.1-0.7c0-0.1,0-0.2,0-0.2c0,0,0,0.1,0,0.1c0,0.3-0.1,0.9,0,0.9c0.1,0,0.1,0.1,0.4-0.1
				c0.1,0,0.2-0.1,0.2-0.1c0,0,0,0-0.1,0C45.6,5.4,45.4,5.4,45.4,5.4z"/>
		</g>
		<path class="st46" d="M46,4.3C46,4.3,46,4.3,46,4.3C46,4.3,46.1,4.3,46,4.3C46,4.2,46,4.2,46,4.3C46,4.2,46,4.3,46,4.3z"/>
		<path class="st46" d="M44.7,4.8C44.7,4.8,44.7,4.9,44.7,4.8C44.8,4.8,44.8,4.8,44.7,4.8C44.8,4.8,44.7,4.8,44.7,4.8
			C44.7,4.8,44.7,4.8,44.7,4.8z"/>
		<path class="st47" d="M45.5,6.2c0.1-0.1,0.1-0.1,0.2-0.1C45.9,6,45.9,5.9,46,5.9c0.2-0.1,0.3,0,0.7-0.2c0.1,0,0.1,0,0,0.1
			c-0.1,0.2-0.6,0.6-0.8,0.7c-0.2,0.1-0.2,0-0.3,0C45.5,6.4,45.4,6.3,45.5,6.2z"/>
	</g>
	<g>
		<g>
			<defs>
				<rect id="SVGID_14_" x="34" y="63.7" width="2.6" height="4.1"/>
			</defs>
			<clipPath id="SVGID_15_">
				<use xlink:href="#SVGID_14_"  style="overflow:visible;"/>
			</clipPath>
			<path class="st48" d="M35,69.5c0,0-0.1-2.2-0.3-5.2c0.2,0,0.5-0.1,0.5-0.1s1.1,2.8,0.9,5.4C35.8,69.8,35,69.5,35,69.5z"/>
		</g>
		<g>
			<path class="st49" d="M29.1,69.4c0,0-1.1,0.1-0.9,1c0.2,0.8,0.7,0.9,0.3,1.2c0,0-0.1,0.1-0.1,0c0,0-0.1,0-0.1-0.1
				c0-0.1,0-0.1,0.1-0.1c0,0-0.3-0.1-0.3,0.2c0.1,0.3,0.9,0.3,1.2,0c0.4-0.3,0.9-0.9,0.3-1.6C29.3,69.8,29.3,69.8,29.1,69.4z"/>
			<path class="st50" d="M31.3,70.3c0,0-0.1,0-0.1-0.1c0,0,0,0,0,0c-0.1,0-0.2,0-0.4-0.1c-0.2-0.1-0.4-0.2-0.6-0.3c0,0-0.2,0-0.2,0
				c0,0,0.6,1.1,0.2,1.8c0,0,1.4,0.9,1.6-0.3C31.8,71.4,31.4,71.1,31.3,70.3C31.3,70.3,31.3,70.3,31.3,70.3z"/>
			<path class="st50" d="M29.7,67.3c0,0-0.4,0.4,0,1.8c0,0-0.1-0.2-0.5,0c-0.2,0.1-0.2,0.3,0,0.6c0.1,0.3,0.4,0.6,0.7,0.5
				c0.1,0,0.2-0.1,0.2-0.1c0,0,0-0.1,0-0.1c0,0,0.7,0.6,1.6,0.7c0.3,0,0.4-0.1,0.5-0.4c0.2-0.3,0.4-0.8,0.3-1.1
				c-0.1-0.4-0.3-0.8-0.3-1.5c0-0.7-0.6-0.9-1.1-0.9C30.7,66.9,29.9,67.1,29.7,67.3z"/>
			<path class="st51" d="M32,67.8c0.1,0,0.1,0,0.2,0.1c0,0,0-0.1,0-0.1c0-0.7-0.6-0.9-1.1-0.9c-0.4,0-1.3,0.2-1.4,0.4
				c0,0-0.2,0.2-0.2,0.7C30.8,68.4,31.8,67.8,32,67.8z"/>
			<path class="st51" d="M29.4,69.4c0,0,0.2-0.2,0.3-0.1c0.1,0.1,0.4,0.5,0.3,0.6c-0.1,0.1-0.3,0.1-0.3-0.2
				C29.7,69.4,29.5,69.3,29.4,69.4z"/>
			<g>
				<g>
					<path class="st52" d="M31.9,69.2C31.9,69.2,31.9,69.2,31.9,69.2c-0.1,0-0.1,0-0.1,0.1c0,0-0.1,0.1-0.1,0.1
						C31.8,69.3,31.9,69.2,31.9,69.2C31.9,69.2,31.9,69.2,31.9,69.2z"/>
					<g>
						<path class="st52" d="M31.8,69.1c0,0.1,0.1,0.1,0.2,0.1c0,0,0,0,0,0c0,0,0,0,0,0c-0.1-0.1-0.1-0.1-0.2-0.3
							c-0.1-0.2-0.2-0.5-0.2-0.5c0,0,0.1,0.3,0.1,0.5C31.7,68.9,31.7,69,31.8,69.1z"/>
					</g>
					<path class="st53" d="M31.5,69c0,0,0-0.1,0-0.4c0,0.1,0.2,0.3,0.3,0.4c0,0,0,0.1-0.1,0.1c-0.1,0-0.1,0-0.2,0c0,0-0.1,0.1,0,0.2
						C31.3,69.2,31.5,69.1,31.5,69z"/>
				</g>
			</g>
			<g>
				<g>
					<defs>
						<path id="SVGID_16_" d="M30.5,68.9c0,0,0-0.3,0.3-0.4c0.3-0.1,0.3,0.2,0.4,0.3c0,0,0,0.2-0.3,0.2C30.6,69,30.5,68.9,30.5,68.9
							z"/>
					</defs>
					<clipPath id="SVGID_17_">
						<use xlink:href="#SVGID_16_"  style="overflow:visible;"/>
					</clipPath>
					<path class="st54" d="M30.5,68.9c0,0,0-0.3,0.3-0.4c0.3-0.1,0.3,0.2,0.4,0.3c0,0,0,0.2-0.3,0.2C30.6,69,30.5,68.9,30.5,68.9z"
						/>

						<linearGradient id="SVGID_18_" gradientUnits="userSpaceOnUse" x1="90.9181" y1="192.325" x2="90.9701" y2="192.7979" gradientTransform="matrix(0.9878 -0.1556 0.1556 0.9878 -88.971 -107.28)">
						<stop  offset="0.1398" style="stop-color:#4D505C"/>
						<stop  offset="1" style="stop-color:#70727C"/>
					</linearGradient>
					<path class="st55" d="M31,68.8c0,0.1-0.1,0.2-0.2,0.2c-0.1,0-0.2-0.1-0.2-0.2c0-0.1,0.1-0.2,0.2-0.2C30.9,68.6,31,68.6,31,68.8
						z"/>
					<path class="st56" d="M30.9,69c-0.2,0-0.3,0-0.4-0.1c0,0,0,0,0,0S30.6,69,30.9,69c0.2,0,0.3-0.1,0.3-0.1
						C31.1,68.9,31,68.9,30.9,69z"/>
				</g>
				<path class="st57" d="M30.8,68.5c-0.2,0-0.3,0.2-0.3,0.3c0,0-0.1,0.1-0.1,0.1c0,0,0.1,0.1,0.2,0c0,0,0,0,0,0c0,0,0,0,0,0
					c0.1-0.1,0.2-0.2,0.3-0.2c0.1,0,0.2,0,0.3,0C31.1,68.6,31,68.5,30.8,68.5z"/>
			</g>
			<path class="st46" d="M30.8,68.7C30.8,68.8,30.8,68.8,30.8,68.7C30.7,68.8,30.7,68.8,30.8,68.7C30.7,68.7,30.7,68.7,30.8,68.7
				C30.7,68.7,30.8,68.7,30.8,68.7z"/>
			<g>
				<defs>
					<path id="SVGID_19_" d="M31.8,68.7c0,0-0.2-0.3,0.1-0.4c0.3-0.1,0.3,0.2,0.3,0.2s0,0.1-0.1,0.2C32.1,68.7,32,68.8,31.8,68.7z"
						/>
				</defs>
				<clipPath id="SVGID_20_">
					<use xlink:href="#SVGID_19_"  style="overflow:visible;"/>
				</clipPath>
				<path class="st58" d="M31.8,68.7c0,0-0.2-0.3,0.1-0.4c0.3-0.1,0.3,0.2,0.3,0.2s0,0.1-0.1,0.2C32.1,68.7,32,68.8,31.8,68.7z"/>

					<linearGradient id="SVGID_21_" gradientUnits="userSpaceOnUse" x1="92.0663" y1="192.2539" x2="92.1097" y2="192.6573" gradientTransform="matrix(0.9878 -0.1556 0.1556 0.9878 -88.971 -107.28)">
					<stop  offset="0.1398" style="stop-color:#4D505C"/>
					<stop  offset="1" style="stop-color:#70727C"/>
				</linearGradient>
				<path class="st59" d="M32.1,68.5c0,0.1,0,0.2-0.1,0.2c-0.1,0-0.2-0.1-0.2-0.2s0-0.2,0.1-0.2S32.1,68.4,32.1,68.5z"/>
				<path class="st60" d="M32,68.7c0,0-0.1,0-0.2,0c0.2,0.1,0.3,0,0.3,0c0,0,0.1-0.1,0.1-0.2C32.2,68.6,32.1,68.7,32,68.7z"/>
			</g>
			<path class="st57" d="M31.8,68.3c0.1-0.1,0.2,0,0.3,0c0,0,0.1,0,0.1,0c0,0,0,0.1-0.1,0c0,0,0,0,0,0c0,0,0,0,0,0
				c-0.1,0-0.2,0-0.2,0c-0.1,0-0.1,0.1-0.2,0.1C31.7,68.4,31.7,68.3,31.8,68.3z"/>
			<path class="st46" d="M31.9,68.5C31.9,68.5,31.9,68.5,31.9,68.5C31.9,68.5,31.8,68.5,31.9,68.5C31.8,68.5,31.8,68.5,31.9,68.5
				C31.9,68.5,31.9,68.5,31.9,68.5z"/>
			<path class="st46" d="M32.2,69.6c-0.1,0.1-0.3,0.2-0.8,0.2c0,0,0,0.1,0.1,0.1c0.1,0,0.2,0,0.3,0c0.1,0,0.2-0.1,0.3-0.1
				C31.9,69.9,32.1,69.7,32.2,69.6C32.1,69.6,32.1,69.6,32.2,69.6z"/>
			<path class="st61" d="M31.2,69.8c0,0,0.2,0.1,0.3,0.2c0.2,0.1,0.3,0.1,0.4-0.1c0.1-0.2,0.1-0.3,0.2-0.3s0,0,0,0s0,0-0.1,0.1
				c-0.1,0.1-0.2,0.2-0.3,0.2C31.7,69.9,31.5,69.8,31.2,69.8z"/>
			<path class="st61" d="M32.1,69.5c0,0-0.2-0.1-0.3,0.1c0,0-0.1,0-0.1,0c-0.1,0-0.1,0-0.3,0.1c-0.1,0.1-0.2,0.1-0.3,0.1
				c0.2,0,0.8,0,1-0.3c0,0,0,0,0,0C32.2,69.5,32.1,69.6,32.1,69.5z"/>
			<path class="st57" d="M32.3,67.9c0,0-0.1-0.1-0.2-0.1c0,0-0.4,0-0.5,0s0,0.3,0.1,0.2c0.1,0,0.3-0.1,0.4-0.1
				C32.2,68,32.3,68.1,32.3,67.9z"/>
			<path class="st57" d="M30.1,68.5c0,0,0.2-0.3,0.3-0.4c0.1-0.1,0.6-0.3,0.7-0.2c0,0.1,0.1,0.2-0.2,0.3c-0.2,0-0.3,0.1-0.4,0.1
				C30.3,68.4,30.2,68.7,30.1,68.5z"/>
			<path class="st49" d="M30.9,66.4c-0.7,0-1.1,0.2-1.3,0.4c-1.2,0.3-1.3,1.8-0.6,2.9c0.2,0.3,0.4,0.5,0.7,0.6c0,0,0-0.1,0-0.1
				c-0.2-0.1-0.3-0.3-0.4-0.5c-0.1-0.3-0.1-0.6,0-0.6c0.1,0,0.2,0,0.3,0c0.1,0,0.2,0.1,0.3,0.2c0,0,0,0,0,0c0.1-0.1,0.1-0.2,0.1-0.3
				c-0.1-0.5-0.1-0.8,0-1.1c0.1,0,1,0,1.1-0.1c0.7-0.2,0.3-0.4,1.1-0.2C32.2,67.6,32.7,66.3,30.9,66.4z"/>
			<path class="st62" d="M30.9,66.4c-0.7,0-1.1,0.2-1.3,0.4c-0.7,0.2-1,0.8-1,1.5c0.1,0,0.2,0,0.3,0c0.3,0,0.6,0,0.9-0.1
				c0,0,0.1,0,0.1,0c0-0.1,0-0.2,0.1-0.2c0.1,0,1,0,1.1-0.1c0.7-0.2,0.3-0.4,1.1-0.2C32.2,67.6,32.7,66.3,30.9,66.4z"/>
			<g>
				<path class="st63" d="M32.1,66.6c0,0,0.7-0.1,0.7,0.4c0,0.6-1.8,0.4-2.6,0.4c-0.8,0-1.8,1.1-2.1,0.3c0,0,0-0.2,0.3-0.3
					c0,0-0.6-1.9,1.3-2.3C31.3,64.6,31.8,66,32.1,66.6z"/>
				<path class="st64" d="M29.2,67.2c0.3-0.1,0.6-0.2,1-0.2c0.3,0,0.7,0.1,1,0c-0.7-0.3-1.4-1.1-1.7-1.9c-1.5,0.5-1.1,1.9-1,2.1
					C28.7,67.3,29,67.3,29.2,67.2z"/>
				<path class="st65" d="M28.3,67.4c0.2,0.1,0.5,0.1,0.7,0c0.6-0.3,1.2-0.2,1.9-0.3c0.3,0,0.6,0,0.9-0.1c0.3-0.1,0.4-0.2,0.6-0.4
					c0,0,0.1-0.1,0.1-0.1c0.2,0,0.3,0.1,0.3,0.4c0,0.6-1.8,0.4-2.6,0.4c-0.8,0-1.8,1.1-2.1,0.3C28,67.7,28,67.5,28.3,67.4z"/>
				<path class="st66" d="M28.3,67.4c0.2,0.1,0.5,0.1,0.7,0c0.6-0.3,1.2-0.2,1.9-0.3c0.3,0,0.6,0,0.9-0.1c0.3-0.1,0.4-0.2,0.6-0.4
					c0,0,0.1-0.1,0.1-0.1c0.2,0,0.3,0.1,0.3,0.4c0,0.6-1.8,0.4-2.6,0.4c-0.8,0-1.8,1.1-2.1,0.3C28,67.7,28,67.5,28.3,67.4z"/>
				<path class="st67" d="M28.2,67.5c0.2,0.1,0.5,0.1,0.8,0c0.6-0.3,1.3-0.2,1.9-0.3c0.3,0,0.6,0,0.9-0.1c0.3-0.1,0.4-0.2,0.6-0.4
					c0,0,0.1-0.1,0.1-0.1c0.1,0,0.2,0.1,0.3,0.2c0-0.1-0.2-0.2-0.3-0.2c0,0,0,0.1-0.1,0.1c-0.2,0.2-0.3,0.3-0.6,0.4
					c-0.3,0.1-0.6,0.1-0.9,0.1c-0.6,0-1.3,0-1.9,0.3C28.8,67.5,28.5,67.5,28.2,67.5c0,0-0.1,0-0.1,0.1
					C28.1,67.5,28.2,67.5,28.2,67.5z"/>
			</g>
		</g>
		<path class="st50" d="M32,71.3c0,0,2.8-3.5,3.3-3.7c0.5-0.1,0.9,0.7,0,1.9c-0.7,0.9-2.3,3-2.3,3s-0.4,0.4-0.9,0.2
			C31.6,72.3,31.5,71.9,32,71.3z"/>
		<path class="st68" d="M31.5,72.4c0,0,0-0.5,0.3-1.1c0.4-0.6,1.1-1.6,1.1-1.6s0.9,0.2,1.4,1.1c-0.6,0.8-1.5,2-1.5,2
			S32.2,73.5,31.5,72.4z"/>
		<path class="st50" d="M35.3,64.3c0-0.1-0.7-1.3-0.7-1.3c0-0.1-0.1-0.2-0.2-0.1c0,0.1,0.1,0.3,0.1,0.3s0.2,0.3,0.1,0.2
			c-0.1-0.1-0.6-0.8-0.7-0.9c-0.1-0.2-0.2-0.1-0.1,0s0.4,0.7,0.4,0.7S34,63,33.8,62.8c-0.1-0.2-0.2-0.3-0.2-0.3c-0.1,0,0,0.2,0,0.2
			s-0.1-0.1-0.1-0.1c-0.1,0,0,0.2,0.1,0.3c0.1,0.2,0.3,0.4,0.3,0.4c0,0-0.2-0.2-0.2-0.2c-0.1-0.1-0.1-0.2-0.2-0.1
			c0,0,0.1,0.3,0.3,0.5c0.2,0.2,0.9,0.8,0.9,0.8c0.1,0,0.1,0.3,0.1,0.3l0.5,0C35.3,64.6,35.3,64.5,35.3,64.3z"/>
		<path class="st69" d="M36,67.8c0,0,0.1,0.7-0.5,1.2c-0.6,0.2-1.2-0.6-1.1-0.6c0,0,0.4-0.5,0.4-0.9C35.2,67.6,36,67.8,36,67.8z"/>
		<path class="st68" d="M31.6,71.3c0,0,1.9,0.4,2,0.5c0.1,0.1,0.3,0.9,0.6,1.4c0.3,0.4,0.7,0.6,0.9,1.2c0.2,0.6-0.4,0.9-0.4,1.3
			c0,0.3,0.1,2.2,0.4,3.5c-0.6,0.2-3.6,1.1-3.6,1.1s-0.2-1.9-1.1-3.7s-0.8-3.2-0.7-3.8c0.1-0.9,0.7-1.3,0.7-1.3L31.6,71.3z"/>

			<linearGradient id="SVGID_22_" gradientUnits="userSpaceOnUse" x1="234.232" y1="-336.864" x2="234.3809" y2="-339.7351" gradientTransform="matrix(0.947 -0.3213 0.3213 0.947 -80.5271 470.7347)">
			<stop  offset="0" style="stop-color:#F3EBEB"/>
			<stop  offset="0.5699" style="stop-color:#E2DBDB"/>
			<stop  offset="1" style="stop-color:#DCD5D5"/>
		</linearGradient>
		<path class="st70" d="M30.4,76.3c0,0,1.5-1.3,2-1.4c0.5-0.1,1.4,0.3,1.5,0.1c0.2-0.2,1-0.9,1.1-0.6c0.1,0.3-0.4,0.9-0.5,1.2
			c-0.1,0.2-0.1,0.7-0.1,0.7l-3.7,1.2L30.4,76.3z"/>
		<path class="st46" d="M30.3,71c0,0,0.8,0.2,1.2-0.1c0.1,0.2,0.3,0.5,0.3,0.5s0,0.2-0.1,0.3c-0.1-0.2-0.3-0.5-0.3-0.5l0.1,0.6
			c0,0-0.7,0.4-1.3-0.1C30.3,71.4,30.3,71,30.3,71z"/>
		<path class="st50" d="M33.6,82.8c0,0-0.4,6-0.4,6.7c-0.1,0.8-1.1,1.2-1.4-0.5c-0.3-1.7-0.8-5.7-0.8-7.4S33.6,82.8,33.6,82.8z"/>
		<path class="st50" d="M35.2,82.5c0,0,0.9,6.4,1,7.2s-0.8,1.4-1.4-0.2c-0.6-1.6-2-5.9-2.4-7.6C32,80.3,35.2,82.5,35.2,82.5z"/>
		<path class="st50" d="M33.1,89.6c0,0-0.1,4.7-0.2,6.6c-0.2,0.1-0.5,0-0.5,0S31.9,94,31.7,93c-0.2-1-0.2-2-0.1-2.8
			c0.1-0.9,0.1-1.5,0.1-1.5L33.1,89.6z"/>
		<path class="st50" d="M36,90.4c0,0-3.1,3.1-4.5,4.5c-0.2-0.1-0.4-0.3-0.4-0.3s1.1-2,1.6-2.9c0.5-0.9,0.8-1.2,1.5-1.8
			c0.6-0.6,1.1-1.1,1.1-1.1L36,90.4z"/>
		<polygon class="st71" points="32.3,96.8 32.5,97.9 32.6,97.9 32.6,97.2 		"/>
		<path class="st50" d="M32.3,95.7c0,0,0.1,0.4,0,0.8c0.1,0.4,0.3,0.7,0.3,0.7l0.3,0.4l0.3,0.1c0,0,0.3,0,0.3,0c0,0,0.1-0.2,0.1-0.2
			l-0.1-0.1l-0.1-0.1c0,0-0.4-0.9-0.5-1.4S32.3,95.7,32.3,95.7z"/>
		<path class="st72" d="M32.3,96.5c0,0,0.3,0.4,0.4,0.6c0.1,0.2,0.1,0.4,0.4,0.4c0.3,0,0.4,0,0.4,0c0,0-0.1-0.2-0.1-0.2
			s0.2,0.2,0.2,0.2c0,0,0.2,0.1,0.2,0.2c0,0.2-0.1,0.2-0.4,0.2s-0.3,0-0.3,0s-0.3,0-0.4-0.1c-0.1-0.1-0.2-0.5-0.2-0.7
			C32.4,97,32.2,96.9,32.3,96.5z"/>
		<polygon class="st71" points="30.7,94.8 30.1,95.7 30.2,95.7 30.7,95.3 		"/>
		<path class="st50" d="M31.6,94c0,0-0.4,0.4-0.7,0.5c-0.2,0.4-0.3,0.7-0.3,0.7l-0.1,0.5l0.2,0.3c0,0,0.2,0.2,0.2,0.2
			c0,0,0.2-0.1,0.2-0.1l0-0.1l0-0.2c0,0,0.3-0.8,0.5-1.2S31.6,94,31.6,94z"/>
		<path class="st72" d="M30.9,94.6c0,0-0.1,0.5-0.1,0.7c0,0.2-0.1,0.4,0.1,0.6c0.2,0.2,0.3,0.3,0.3,0.3c0,0,0-0.3,0-0.3s0,0.3,0,0.3
			c0,0,0.1,0.2,0,0.3c-0.1,0.1-0.2,0-0.4-0.2c-0.2-0.2-0.2-0.2-0.2-0.2s-0.2-0.2-0.2-0.3c0-0.1,0.2-0.5,0.3-0.6
			C30.7,95,30.6,94.8,30.9,94.6z"/>
		<path class="st69" d="M36,88c0,0-0.3,0.1-0.8,0.3c-0.5,0.2-0.7,0.5-0.7,0.5l-0.2-0.6L36,88L36,88z"/>
		<linearGradient id="SVGID_23_" gradientUnits="userSpaceOnUse" x1="30.2802" y1="83.7046" x2="36.0767" y2="83.7046">
			<stop  offset="0.1022" style="stop-color:#575454"/>
			<stop  offset="1" style="stop-color:#6C6969"/>
		</linearGradient>
		<path class="st73" d="M31.2,79.2c0,0,2.3,0.3,3.9,0.1c0.4,2.9,1,8.6,1,8.6s-0.9,0.3-2.1,0.4c-1.2,0.1-2.5,0-2.5,0s-1-3.2-1.2-5.1
			C30.1,80.6,31.2,79.2,31.2,79.2z"/>
		<polygon class="st69" points="33.1,91.2 33,93.4 33.6,92.8 33.2,91.1 		"/>
		<polygon class="st69" points="31.8,93.4 32,94.4 31.6,94.8 31.8,93.5 		"/>
		<path class="st50" d="M31.1,72.1c0,0,3.9-2.3,4.4-2.2c0.6,0.1,0.6,0.9-0.7,1.7c-1,0.6-3.2,1.9-3.2,1.9s-0.5,0.2-0.9-0.2
			C30.4,73,30.4,72.6,31.1,72.1z"/>
		<path class="st68" d="M30.2,73c0,0,0.1-0.4,0.7-0.9c0.6-0.5,1.6-1.1,1.6-1.1s0.7,0.5,0.9,1.6c-0.8,0.6-2.1,1.3-2.1,1.3
			S30.4,74.3,30.2,73z"/>
		<path class="st50" d="M35,70.2c0,0,0.8-2.5,1.8-5.4c0.2,0,0.5,0.1,0.5,0.1s-0.1,3.4-1.3,5.7C35.6,70.8,35,70.2,35,70.2z"/>
		<path class="st50" d="M36.8,64.6c0.1-0.1,0.9-1.1,0.9-1.1c0-0.1,0.2-0.1,0.2,0c0,0.1-0.2,0.3-0.2,0.3S37.5,64,37.7,64
			c0.1,0,0.8-0.6,0.9-0.8c0.1-0.2,0.2,0,0.1,0.1c-0.1,0.1-0.5,0.6-0.5,0.6s0.1-0.1,0.4-0.3c0.2-0.2,0.2-0.3,0.3-0.3
			c0.1,0,0,0.3,0,0.3s0.1-0.1,0.1-0.1c0,0.1,0,0.2-0.2,0.4c-0.1,0.2-0.4,0.4-0.4,0.4c0,0,0.2-0.1,0.3-0.2c0.1-0.1,0.2-0.2,0.2-0.1
			c0,0.1-0.2,0.3-0.4,0.5c-0.3,0.2-1.1,0.5-1.1,0.6c-0.1,0-0.2,0.3-0.2,0.3l-0.5-0.3C36.7,65.1,36.8,64.7,36.8,64.6z"/>
		<path class="st69" d="M36.1,70.3c0,0-0.1,0.6-0.9,1c-0.7,0-0.9-1-0.8-1c0,0,0.6-0.3,0.7-0.7C35.4,69.9,36.1,70.3,36.1,70.3z"/>
		<polygon class="st74" points="32.4,73.2 30.6,74.6 32.6,73.6 		"/>
	</g>
</g>
</svg>
