<?xml version="1.0" encoding="utf-8"?>
<!-- Generator: Adobe Illustrator 23.0.2, SVG Export Plug-In . SVG Version: 6.00 Build 0)  -->
<svg version="1.1" id="Calque_1" xmlns="http://www.w3.org/2000/svg" xmlns:xlink="http://www.w3.org/1999/xlink" x="0px" y="0px"
	 viewBox="0 0 150 150" style="enable-background:new 0 0 150 150;" xml:space="preserve">
<style type="text/css">
	.st0{fill:#16162D;}
</style>
<path class="st0" d="M74.4,10.3c-38.7,0-69.9,28.1-69.9,62.5c0,18.2,8.7,34.5,22.7,46l-6,20.3c-0.3,1.2,0.7,2.2,1.9,1.9l27.9-9.4
	c7.3,2.4,15.2,3.6,23.5,3.6c38.7,0,69.9-27.9,69.9-62.5C144.4,38.4,113.3,10.3,74.4,10.3z M91.3,29.2c2.3,0,4.3,1.8,4.3,4.4
	c0,2.4-2,4.4-4.4,4.3c-2.4,0-4.4-2-4.4-4.4C86.9,31.1,88.9,29.2,91.3,29.2z M73.5,38.6c1.9-1.2,4.1-1.5,6.4-1.3
	c5.2,0.5,9.6,2.8,13.7,5.9c0.9,0.7,1.8,1.4,2.5,2.2c2.1,2.3,2.5,5,1.2,7.8c-0.8,1.8-2,3.3-3.4,4.7c-3.1,3.2-6.8,5.7-10.6,7.9
	c-2,1.2-4,2.3-6,3.3c-0.4,0.2-0.5,0.1-0.6-0.2c-2.5-6-4.5-12.1-5.7-18.5c-0.4-1.8-0.7-3.6-0.8-5.3C70.2,42.4,71.1,40.1,73.5,38.6z
	 M32.8,53.1c0-2.5,2-4.4,4.4-4.3c2.3,0,4.3,1.8,4.3,4.4c0,2.4-2,4.4-4.4,4.3C34.7,57.5,32.8,55.6,32.8,53.1z M43.9,74.3
	c-2.7-1.3-4-3.5-4.2-6.4c-0.2-3,0.7-5.8,1.9-8.4c1.8-3.7,4.4-6.9,7.5-9.7c1.7-1.5,3.6-2.3,5.9-1.9c1.6,0.3,2.9,1,4.1,2
	c2.3,1.9,4.1,4.3,5.7,6.8c2.7,4.4,4.8,9,6.6,13.8c0.1,0.4,0,0.5-0.3,0.6c-4.1,1.2-8.2,2.2-12.4,2.9c-3.4,0.6-6.8,0.9-9.6,1.1
	C46.8,75.1,45.3,74.9,43.9,74.3z M55.9,114.2c-2.4,0-4.4-2-4.4-4.4c0-2.5,2-4.4,4.4-4.3c2.3,0,4.3,1.8,4.3,4.4
	C60.3,112.3,58.3,114.3,55.9,114.2z M76.1,104.5c-1.5,1.7-3.5,2.3-5.7,2.4c-3.1,0.2-6-0.7-8.8-2c-3.2-1.5-6-3.5-8.6-6
	c-1.2-1.1-2.1-2.4-2.5-4.1c-0.4-1.8,0-3.5,0.9-5.1c1.3-2.3,3.1-4.1,5.1-5.7c4.1-3.4,8.7-5.9,13.5-8.2c0.6-0.3,1.3-0.6,1.9-0.9
	c0.3-0.2,0.5-0.1,0.6,0.3c0.9,2.4,1.7,4.8,2.4,7.3c1.4,4.9,2.5,9.9,3,14.9c0,0.4,0,0.9,0.1,1.1C78,100.9,77.6,102.9,76.1,104.5z
	 M99.6,96.8c-1.4,1.2-3,2-5,1.9c-1.5,0-2.7-0.6-3.9-1.4c-2.3-1.6-3.9-3.7-5.4-6c-2.9-4.5-4.9-9.3-6.6-14.3c-0.2-0.5-0.4-1.1-0.5-1.6
	c-0.2-0.6-0.2-0.6,0.4-0.8c2.4-0.6,4.9-1.1,7.3-1.6c5-0.9,10-1.4,15.1-1.4c1.4,0,2.8,0.2,4.1,0.7c2.7,1.1,4.1,3.2,4.4,6
	c0,0.4,0.1,0.8,0.1,1c-0.1,3.6-1.4,6.7-3.2,9.7C104.5,92.1,102.2,94.6,99.6,96.8z M111.9,98.3c-2.4,0-4.4-2-4.4-4.4
	c0-2.5,2-4.4,4.4-4.3c2.3,0,4.3,1.8,4.3,4.4C116.2,96.4,114.3,98.3,111.9,98.3z"/>
</svg>
