<?xml version="1.0" encoding="utf-8"?>
<!-- Generator: Adobe Illustrator 23.0.2, SVG Export Plug-In . SVG Version: 6.00 Build 0)  -->
<svg version="1.1" id="Calque_1" xmlns="http://www.w3.org/2000/svg" xmlns:xlink="http://www.w3.org/1999/xlink" x="0px" y="0px"
	 viewBox="0 0 100 100" style="enable-background:new 0 0 100 100;" xml:space="preserve">
<style type="text/css">
	.st0{fill:#1D1D1B;}
	.st1{fill:#FFFFFF;}
	.st2{clip-path:url(#SVGID_2_);}
	.st3{fill:#F7B580;}
	.st4{fill:#F39E6D;}
	.st5{fill:#FAF8F4;}
	.st6{fill:#783C28;}
	.st7{opacity:0.18;fill:#612711;enable-background:new    ;}
	.st8{fill:#0E1721;}
	.st9{fill:#F9C7A2;}
	.st10{fill:#D67238;}
	.st11{fill:#FBDBC3;}
	.st12{clip-path:url(#SVGID_4_);}
	.st13{fill:url(#SVGID_5_);}
	.st14{fill:url(#SVGID_6_);}
	.st15{fill:url(#SVGID_7_);}
	.st16{fill:url(#SVGID_8_);}
	.st17{fill:url(#SVGID_9_);}
	.st18{fill:url(#SVGID_10_);}
	.st19{fill:url(#SVGID_11_);}
	.st20{fill:url(#SVGID_12_);}
	.st21{fill:url(#SVGID_13_);}
	.st22{fill:url(#SVGID_14_);}
	.st23{fill:url(#SVGID_15_);}
	.st24{fill:none;}
	.st25{fill:url(#SVGID_16_);}
	.st26{fill:url(#SVGID_17_);}
	.st27{fill:url(#SVGID_18_);}
	.st28{clip-path:url(#SVGID_20_);}
	.st29{fill:url(#SVGID_21_);}
	.st30{fill:url(#SVGID_22_);}
	.st31{fill:url(#SVGID_23_);}
	.st32{fill:url(#SVGID_24_);}
	.st33{fill:url(#SVGID_25_);}
	.st34{fill:url(#SVGID_26_);}
	.st35{fill:url(#SVGID_27_);}
	.st36{clip-path:url(#SVGID_29_);}
	.st37{fill:url(#SVGID_30_);}
	.st38{fill:#825138;}
	.st39{fill:url(#SVGID_31_);}
	.st40{fill:#0D0D15;}
	.st41{fill:url(#SVGID_32_);}
	.st42{fill:url(#SVGID_33_);}
</style>
<g>
	<path class="st0" d="M43.2,59.2l36.1,2.2c3.9,0,7-3.1,7-7l4.4-35.3c0-0.2,0-0.5,0-0.7c-0.3-3.5-3.3-6.3-7-6.3l-57,4.4
		c-3.9,0-7,3.1-7,7l4.4,27.9c0,3.6,2.7,6.5,6.2,6.9L43.2,59.2C43.2,59.2,43.2,59.2,43.2,59.2z"/>
	<path class="st1" d="M44.1,57.5l33.4,2.1c3.6,0,6.5-2.9,6.5-6.5L88,20.4c0-0.2,0-0.4,0-0.6c-0.3-3.3-3.1-5.8-6.4-5.8l-52.6,4.1
		c-3.6,0-6.5,2.9-6.5,6.5l4.1,25.8c0,3.3,2.5,6,5.7,6.4L44.1,57.5C44.1,57.5,44.1,57.5,44.1,57.5z"/>
	
		<rect x="32.2" y="25.8" transform="matrix(0.999 -4.437387e-02 4.437387e-02 0.999 -1.1464 2.4944)" class="st0" width="46.8" height="2.6"/>
	
		<rect x="32" y="36.6" transform="matrix(0.9995 -3.049704e-02 3.049704e-02 0.9995 -1.1281 1.7086)" class="st0" width="46.8" height="2.6"/>
	<rect x="32" y="46.8" class="st0" width="26.2" height="2.6"/>
</g>
<g>
	<g>
		<g>
			<defs>
				<rect id="SVGID_1_" x="2.1" y="24.3" width="30.1" height="42"/>
			</defs>
			<clipPath id="SVGID_2_">
				<use xlink:href="#SVGID_1_"  style="overflow:visible;"/>
			</clipPath>
			<g class="st2">
				<path class="st3" d="M11.8,51.9c0,0,1.4-0.8,2.3-1.7c0.6-0.6,0.9-1.3,1.1-1.5c0.5-0.6,1.1-1.2,1.4-1.4c0.3-0.2,4.4-2.2,4.9-1.2
					c0,0,0.3,0.8-3.6,2.2c0,0,1.8,1.4,1.5,2.3c-0.1,0.2-0.4,0.7-0.9,0.9c-1.2,0.4-2.4,0.4-2.8,0.8c-0.4,0.1-1.8,1.1-1.8,1.1
					S12.1,53,11.8,51.9z"/>
				<path class="st4" d="M16.3,51.3c-0.1-0.1-0.1-0.1-0.1-0.2c-0.1,0-0.1,0-0.2-0.1c-0.7-0.2-1.3-0.4-1.8-0.9l0,0
					c-0.8,0.9-2.3,1.7-2.3,1.7c0.3,1.1,2.1,1.5,2.1,1.5s1.4-1,1.8-1.2c0.2-0.1,0.6-0.2,1-0.3C16.5,51.7,16.4,51.5,16.3,51.3z"/>
				<path class="st4" d="M19.1,50.6c-0.9,0.2-1.7,0.1-2.4,0.9c-0.1,0.1-0.3,0.3-0.4,0.4c0.6-0.1,1.4-0.2,2.1-0.5
					c0.5-0.2,0.8-0.7,0.9-0.9C19.3,50.6,19.2,50.6,19.1,50.6z"/>
				<path class="st4" d="M20.5,45.8c-0.7,0.3-1.4,0.6-2.1,1.1c-0.3,0.2-1.1,0.5-1.3,0.7c-0.3,0.2-0.6,0.7-0.9,0.9
					c0.2-0.1,0.9-0.5,1.1-0.5s0.3,0,0.5,0.1c0.1,0,0.2,0,0.3,0c3.8-1.4,3.5-2.1,3.5-2.1C21.4,45.8,21,45.7,20.5,45.8z"/>
				<polygon class="st5" points="12.2,51.5 13.4,50.3 15.3,52.6 14,53.6 				"/>
				<path class="st6" d="M-5.8,45.3c0,0-0.5,8.1,1.1,11.8c1.6,3.8,5,7.8,6.6,6.8C3.5,63,14.2,53.7,14.2,53.7l-1.9-2.5
					c0,0-9.9,6.1-10.4,6C1.5,57.1-1.2,49-4,46L-5.8,45.3z"/>
				<path class="st7" d="M1.4,61.1c-3-0.7-4-7.7-4.8-10.3c-0.5-1.5-2.2,4.1-1.3,6.3c1.6,3.8,5,7.8,6.6,6.8C2.7,63.5,5.3,61.3,8,59
					l0,0C7.4,59.3,2.8,61.4,1.4,61.1z"/>
				<path class="st8" d="M10.1,59c0,0,0.1,0.4,0.4,0.6c0.3,0.2,0.7,0.1,0.7,0.1s20.3-28.9,20-29.2l0,0C31.1,30.3,10.1,59,10.1,59z"
					/>
				<g>
					<path class="st3" d="M19,49.9c-0.2,0.2-0.5,0.3-0.8,0.4c-0.3,0.1-0.6,0.2-0.7,0.3c-0.2,0.2-0.2,0.6,0.9,0.4
						c0.8-0.2,1-0.4,1.2-0.6c0.2-0.2,0.2-1.2,0.2-1.2L19,49.9z"/>
					<path class="st4" d="M18.6,50.2c-0.1,0.1-0.2,0.1-0.3,0.1c-0.3,0.1-0.6,0.2-0.7,0.3c-0.2,0.2-0.2,0.6,0.9,0.4
						c0.1,0,0.2,0,0.3-0.1C18.5,50.8,18.5,50.5,18.6,50.2z"/>
					<path class="st9" d="M17.4,50.8c0-0.2,0.4-0.3,0.4-0.3s0.2,0.1,0,0.4c-0.1,0-0.2,0.1-0.3,0C17.5,51,17.4,50.9,17.4,50.8z"/>
					<path class="st10" d="M18.8,50.3c0.3-0.1,0.6-0.2,0.9-0.4c0-0.3,0.1-0.7,0.1-0.7L19,49.9c-0.2,0.2-0.5,0.3-0.8,0.4
						c-0.3,0.1-0.6,0.2-0.7,0.3C17.9,50.5,18.4,50.5,18.8,50.3z"/>
				</g>
				<g>
					<path class="st3" d="M15.4,48.8c0,0,1.1-0.7,1.4-1s0.8,0.2,2-0.8c0.1-0.1,0.3-0.1,0.4,0.1c0.1,0.2,0.1,0.5-0.3,1.1
						c-0.5,0.7-1.4,0.7-1.6,0.7c-0.2,0.1-0.5,1.1-1.7,1C14.8,49.9,15.4,48.8,15.4,48.8z"/>
					<path class="st4" d="M19.1,47.1L19.1,47.1c0,0.1-0.1,0.2-0.1,0.3c-0.2,0.5-0.8,0.8-1.4,0.8c-0.2,0-0.3,0-0.4-0.1
						c0,0.6-0.4,1.3-0.6,1.5c0.4-0.3,0.5-0.7,0.6-0.7c0.2-0.1,1,0,1.6-0.7C19.2,47.7,19.2,47.3,19.1,47.1z"/>
					<path class="st11" d="M18.2,47.5l0.5-0.4c0,0,0.2-0.2,0.2,0.2c-0.1,0.2-0.2,0.3-0.3,0.4C18.4,47.8,18.2,47.5,18.2,47.5z"/>
				</g>
				<g>
					<path class="st3" d="M18.3,49.5c-0.3,0.1-1.1,0.6-1,0.9c0.2,0.3,0.7,0.1,1.3-0.1c0.6-0.2,1.4-0.4,1.4-0.7s0-0.9,0-0.9
						S18.4,49.4,18.3,49.5z"/>
					<path class="st4" d="M18.7,49.3L18.7,49.3c-0.2,0.1-0.3,0.1-0.3,0.2c-0.3,0.1-1.1,0.6-1,0.9c0.2,0.3,0.7,0.1,1.3-0.1
						c0,0,0,0,0.1,0C18.6,49.9,18.6,49.6,18.7,49.3z"/>
					<path class="st9" d="M17.4,50.3c-0.1-0.2,0.4-0.4,0.4-0.4s0.3,0.1,0.1,0.4c-0.1,0.1-0.2,0.1-0.3,0.1S17.4,50.4,17.4,50.3z"/>
					<path class="st10" d="M20.1,48.9c0-0.1,0-0.3,0-0.3s-1.6,0.8-1.7,0.8c-0.1,0.1-0.4,0.2-0.6,0.3C18.5,49.6,19.2,49.2,20.1,48.9z
						"/>
				</g>
				<g>
					<path class="st3" d="M18.9,48.3c-0.2,0.1-0.4,0.3-0.6,0.4c-0.4,0.2-1.3,0.7-1.1,1c0.1,0.2,0.4,0.2,0.8,0s0.8-0.4,0.9-0.4
						c0.2-0.1,1.4-0.5,1.4-0.8c0-0.4,0.1-1-0.6-0.6C19.3,48,19,48.2,18.9,48.3z"/>
					<path class="st4" d="M18.4,48.6c-0.1,0-0.1,0.1-0.2,0.1c-0.4,0.2-1.3,0.7-1.1,1c0.1,0.2,0.4,0.2,0.8,0c0.3-0.1,0.7-0.3,0.9-0.4
						C18.6,49.1,18.5,48.9,18.4,48.6z"/>
					<path class="st9" d="M17.2,49.6c-0.1-0.2,0.4-0.4,0.5-0.4c0,0,0.3,0.1,0.1,0.4c-0.1,0.1-0.2,0.1-0.3,0.1
						C17.3,49.7,17.2,49.7,17.2,49.6z"/>
				</g>
			</g>
		</g>
	</g>
</g>
<g>
	<g>
		<g>
			<defs>
				<rect id="SVGID_3_" x="4.5" y="50.6" width="93.7" height="36.6"/>
			</defs>
			<clipPath id="SVGID_4_">
				<use xlink:href="#SVGID_3_"  style="overflow:visible;"/>
			</clipPath>
			<g class="st12">
				
					<linearGradient id="SVGID_5_" gradientUnits="userSpaceOnUse" x1="103.7523" y1="9485.1699" x2="111.2421" y2="9467.3096" gradientTransform="matrix(-1 0 0 1 198.7945 -9396.1699)">
					<stop  offset="0.1444" style="stop-color:#CD8966"/>
					<stop  offset="0.444" style="stop-color:#B97650"/>
					<stop  offset="0.7579" style="stop-color:#AA6940"/>
					<stop  offset="1" style="stop-color:#A5643A"/>
				</linearGradient>
				<path class="st13" d="M91.9,71.1c3.3,4.2,5.4,14.6,4,18.1c-0.7,1.8-4.4,3.1-4.4,3.1s-2.2-4.5-2.2-11
					C89.4,75,91.9,71.1,91.9,71.1z"/>
				
					<linearGradient id="SVGID_6_" gradientUnits="userSpaceOnUse" x1="134.9026" y1="9482.417" x2="123.2134" y2="9475.3457" gradientTransform="matrix(-1 0 0 1 198.7945 -9396.1699)">
					<stop  offset="0.1444" style="stop-color:#CD8966"/>
					<stop  offset="0.444" style="stop-color:#B97650"/>
					<stop  offset="0.7579" style="stop-color:#AA6940"/>
					<stop  offset="1" style="stop-color:#A5643A"/>
				</linearGradient>
				<path class="st14" d="M69.2,71.8C66.1,74.7,64,85.6,65,87.9c1,2.2,6.7,4.8,6.7,4.8s1.1-0.4,1.1-5.2
					C72.7,80.9,69.2,71.8,69.2,71.8z"/>
				
					<linearGradient id="SVGID_7_" gradientUnits="userSpaceOnUse" x1="124.0919" y1="9458.3809" x2="120.6319" y2="9459.1797" gradientTransform="matrix(-1 0 0 1 198.7945 -9396.1699)">
					<stop  offset="0" style="stop-color:#F6E2DD"/>
					<stop  offset="0.8423" style="stop-color:#EEC6BC"/>
				</linearGradient>
				<path class="st15" d="M78.4,66.5c-1.1,0-2.1-1.1-2.2-2.8c-0.1-1.7,0.2-4,0.2-4h2.7v6.8H78.4z"/>
				
					<linearGradient id="SVGID_8_" gradientUnits="userSpaceOnUse" x1="110.6118" y1="9463.541" x2="120.2251" y2="9459.5488" gradientTransform="matrix(-1 0 0 1 198.7945 -9396.1699)">
					<stop  offset="0" style="stop-color:#F6E2DD"/>
					<stop  offset="1" style="stop-color:#EEC6BC"/>
				</linearGradient>
				<path class="st16" d="M77.8,63.4c0.1,1.8,0.5,4.6,0.4,6c0,0,0.1,0.4,2.9,0.4s2.7-0.7,2.7-0.7s-0.5-3.4-0.6-4
					c-0.1-0.7,1.7-1.7,2.1-3.7c0.4-2.1-3.1-2.7-4.5-2.7C79,58.7,77.4,59.3,77.8,63.4z"/>
				
					<linearGradient id="SVGID_9_" gradientUnits="userSpaceOnUse" x1="119.1733" y1="9457.3604" x2="122.3602" y2="9459.8506" gradientTransform="matrix(-1 0 0 1 198.7945 -9396.1699)">
					<stop  offset="0.297" style="stop-color:#F6E2DD"/>
					<stop  offset="0.316" style="stop-color:#F6E1DC"/>
					<stop  offset="0.8251" style="stop-color:#EEC6BC"/>
				</linearGradient>
				<path class="st17" d="M77.3,62c0.4-0.8,1-0.4,0.7,1c-0.2,1.2-0.7,1-0.8,0.4C77.1,63,77.2,62.4,77.3,62z"/>
				
					<linearGradient id="SVGID_10_" gradientUnits="userSpaceOnUse" x1="134.374" y1="9502.5342" x2="110.4862" y2="9474.9658" gradientTransform="matrix(-1 0 0 1 198.7945 -9396.1699)">
					<stop  offset="0.1444" style="stop-color:#CD8966"/>
					<stop  offset="0.444" style="stop-color:#B97650"/>
					<stop  offset="0.7579" style="stop-color:#AA6940"/>
					<stop  offset="1" style="stop-color:#A5643A"/>
				</linearGradient>
				<path class="st18" d="M91.9,71.1c-3.5,13.1,0,14.4-0.4,21.3c0,0-0.4,8.5-0.7,9.6c-0.4,1.1-1.5,1.7-1.5,2.4
					c0,0.2-0.1,1.1-0.1,2.4c-1.6,1-4.4,1.7-8.3,1.7h-0.2l0,0c-3.9,0-7.1-1.1-8.5-1.7c-0.2-1.6-0.4-2.7-0.4-2.7s-1.8-2.4-2.2-4.2
					s0.5-3.7,0.7-5.6s1.2-2.1,1.2-3.3S71,81.5,71,80.4c-0.1-1.1-1.8-8.7-1.8-8.7c0.8-0.7,2.4-1.6,3.4-1.6c0.5,0,15-0.7,15-0.7
					C89.5,70.4,91.3,70.5,91.9,71.1z"/>
				
					<linearGradient id="SVGID_11_" gradientUnits="userSpaceOnUse" x1="118.2411" y1="9462.3887" x2="117.9531" y2="9468.7998" gradientTransform="matrix(-1 0 0 1 198.7945 -9396.1699)">
					<stop  offset="0" style="stop-color:#CD8966"/>
					<stop  offset="0.3502" style="stop-color:#B97650"/>
					<stop  offset="0.717" style="stop-color:#AA6940"/>
					<stop  offset="1" style="stop-color:#A5643A"/>
				</linearGradient>
				<path class="st19" d="M85.3,69.3c-1.6,3.7-3.5,5.1-3.5,5.1c-0.2-0.1-0.5-0.2-0.7-0.5c-2.2-1.5-4.1-3.6-5.1-4.8
					c1.1-0.7,2.5,0.5,4.8,0.5c2.4,0,2.8-0.7,3.4-0.7C84.7,68.8,85.2,69.1,85.3,69.3C85.4,69.3,85.4,69.3,85.3,69.3z"/>
				
					<linearGradient id="SVGID_12_" gradientUnits="userSpaceOnUse" x1="109.7999" y1="9471.0293" x2="122.3834" y2="9471.0293" gradientTransform="matrix(-1 0 0 1 198.7945 -9396.1699)">
					<stop  offset="0" style="stop-color:#CD8966"/>
					<stop  offset="0.3211" style="stop-color:#BB7852"/>
					<stop  offset="0.7153" style="stop-color:#AB6940"/>
					<stop  offset="1" style="stop-color:#A5643A"/>
				</linearGradient>
				<path class="st20" d="M81.2,77.9c4.1-0.8,6.2-6.7,6.4-8.2l0,0c0,0,0.4,0.1,1.1,0.4c0.5,0.1,0.4,1.6-2.3,5.9s-5.7,4.1-5.7,4.1
					C80.9,79.8,80.9,78.7,81.2,77.9z"/>
				
					<linearGradient id="SVGID_13_" gradientUnits="userSpaceOnUse" x1="111.0919" y1="9470.8467" x2="131.209" y2="9470.8467" gradientTransform="matrix(-1 0 0 1 198.7945 -9396.1699)">
					<stop  offset="0.1444" style="stop-color:#CD8966"/>
					<stop  offset="0.3561" style="stop-color:#C07D57"/>
					<stop  offset="0.7463" style="stop-color:#AC6B42"/>
					<stop  offset="1" style="stop-color:#A5643A"/>
				</linearGradient>
				<path class="st21" d="M73.7,69.4c3.6,8.7,7.5,8.5,7.5,8.5c-0.2,0.8-0.2,1.9-0.5,2.1c-4.8-1.3-8.1-8.2-8.2-9.7
					C72.2,69.8,72.7,69.7,73.7,69.4z"/>
				
					<linearGradient id="SVGID_14_" gradientUnits="userSpaceOnUse" x1="107.4976" y1="9469.5771" x2="123.8672" y2="9469.5771" gradientTransform="matrix(-1 0 0 1 198.7945 -9396.1699)">
					<stop  offset="0" style="stop-color:#CD8966"/>
					<stop  offset="0.9424" style="stop-color:#A5643A"/>
				</linearGradient>
				<path class="st22" d="M85.3,69.3c0.1-0.2,0.4-0.4,0.6-0.4c0.6,0,1.5,0,1.6,0.4c0.2,0.5-1.8,7.6-6.4,8.6c0.4-1.1,0.7-2.1,0.7-3.5
					C81.9,74.4,83.8,73,85.3,69.3z"/>
				
					<linearGradient id="SVGID_15_" gradientUnits="userSpaceOnUse" x1="116.7463" y1="9469.1738" x2="130.7082" y2="9469.1738" gradientTransform="matrix(-1 0 0 1 198.7945 -9396.1699)">
					<stop  offset="0" style="stop-color:#CD8966"/>
					<stop  offset="0.6197" style="stop-color:#B16F47"/>
					<stop  offset="1" style="stop-color:#A5643A"/>
				</linearGradient>
				<path class="st23" d="M75.5,68.3c0,0,3.1,4.1,6.4,5.9c0,1.5-0.4,2.4-0.7,3.5c0,0-3.9,0.2-7.5-8.5C73.4,68.9,75.3,68,75.5,68.3z"
					/>
				<g>
					<path class="st24" d="M80.9,108.5c-0.1,0-0.1,0-0.2,0c0-0.1,0-0.4,0.1-0.5C80.8,108,80.9,108.2,80.9,108.5z"/>
					
						<linearGradient id="SVGID_16_" gradientUnits="userSpaceOnUse" x1="98.1946" y1="9522.9697" x2="126.445" y2="9522.9697" gradientTransform="matrix(-1 0 0 1 198.7945 -9396.1699)">
						<stop  offset="0" style="stop-color:#2C5060"/>
						<stop  offset="1" style="stop-color:#0C0500"/>
					</linearGradient>
					<path class="st25" d="M88.8,120.3c0.2,1.2,1.5,1.7,1.3,5.8s-1.5,10.5-1,11.2c0.4,0.7,1.2,2.1,1.2,2.7s-1.2,4.8-1.3,5.6
						c-0.2,0.7-0.8,1-1.2,1s-2.4,0-2.9,0c-0.6,0-1.2-0.7-1-1.5c0.1-0.5,0.7-0.8,1.1-1.5c0.7-1.7,1.5-5,1.7-5.3
						c0.2-0.6-0.6-4.7-1.9-9.1c-1.3-4.4-1-6.8-1-8c0-1.1-2.2-10.3-2.7-12.6c3.9,0,6.8-0.6,8.3-1.7C89,111.1,88.6,119.5,88.8,120.3z"
						/>
					
						<linearGradient id="SVGID_17_" gradientUnits="userSpaceOnUse" x1="104.0695" y1="9523.0303" x2="132.2411" y2="9523.0303" gradientTransform="matrix(-1 0 0 1 198.7945 -9396.1699)">
						<stop  offset="0" style="stop-color:#2C5060"/>
						<stop  offset="0.1746" style="stop-color:#2A4C5A"/>
						<stop  offset="0.402" style="stop-color:#253F4A"/>
						<stop  offset="0.6586" style="stop-color:#1C2A2F"/>
						<stop  offset="0.9347" style="stop-color:#0F0D0A"/>
						<stop  offset="1" style="stop-color:#0C0500"/>
					</linearGradient>
					<path class="st26" d="M80.8,108.6c-0.6,3.7-1.7,11.5-1.6,12.9c0.1,1.9,0.4,3.1,1.3,7.1c1,3.9,0,8.2-0.2,10.6
						c-0.1,2.4,0.6,3.7,1,4.7c0.2,0.7-0.1,1.9-0.2,2.4c0,0.1-0.2,0.2-0.4,0.2h-7.3c-0.1,0-0.2-0.1-0.2-0.2c0-0.7,0.4-1,1-1.3
						c0.7-0.4,2.4-1.2,2.9-2.8c0.5-1.6-2.5-9.2-3.3-12.3c-0.7-3.1,0.4-5.8,0.2-7.4c-0.1-1.1-1.3-10.8-1.8-15.6
						C73.7,107.4,77,108.6,80.8,108.6L80.8,108.6z"/>
				</g>
				
					<linearGradient id="SVGID_18_" gradientUnits="userSpaceOnUse" x1="119.5306" y1="9447.832" x2="115.6396" y2="9464.8369" gradientTransform="matrix(-1 0 0 1 198.7945 -9396.1699)">
					<stop  offset="0" style="stop-color:#A5643A"/>
					<stop  offset="1" style="stop-color:#0C0500"/>
				</linearGradient>
				<path class="st27" d="M86.9,58.9c-1-1.1-0.4-1.7-0.1-2.7c0.2-1.1-0.5-1.9-1.8-1.8c-1.2,0.1-1.3-0.7-1.7-1.2
					c-0.7-0.8-1.7-0.2-2.1,0c-0.5,0.4-0.7,0.5-1.1,0.1c-0.7-0.6-1.5-0.7-1.8,0c-0.2,0.6-0.5,0.7-1,0.6c-1-0.4-1.5,0-1.7,0.2
					c-0.6,0.8,0,1.6-0.2,2.3c-0.1,0.6-0.6,1-0.8,1.5c-0.4,0.6-0.2,1.6,0.2,2.1c0.5,0.5,1.5,0.6,2.1,0.2c0.1-0.1,0.2-0.2,0.4-0.1
					c0.1,0,0.2,0.2,0.2,0.4s0,0.2-0.1,0.4c-0.1,0.5,0.1,0.8,0.5,1.1s0.8,0.1,1.2-0.1c0.4-0.2,0.5-0.7,1-0.8c0.5,0,0.7,0.5,1.1,0.7
					c0.8,0.8,1.7,0.7,2.7-0.1c1-0.8,1.2-0.1,2.1-0.1C86.9,61.7,88.1,60.1,86.9,58.9z"/>
			</g>
		</g>
	</g>
	<g>
		<g>
			<defs>
				<rect id="SVGID_19_" x="4.5" y="50.6" width="93.7" height="36.6"/>
			</defs>
			<clipPath id="SVGID_20_">
				<use xlink:href="#SVGID_19_"  style="overflow:visible;"/>
			</clipPath>
			<g class="st28">
				<g>
					
						<linearGradient id="SVGID_21_" gradientUnits="userSpaceOnUse" x1="70.5865" y1="9562.71" x2="43.7011" y2="9494.4238" gradientTransform="matrix(1 0 0 1 0 -9396.1699)">
						<stop  offset="0" style="stop-color:#EB957C"/>
						<stop  offset="1" style="stop-color:#883A3C"/>
					</linearGradient>
					<path class="st29" d="M57,96.3c0.5,2.3,1,5.1,1,8.1c0,5.9-2.5,16.6-2.7,18c-0.1,1.5,0.2,6.8-0.7,9.7c-0.8,2.9-3,9.3-2.5,10.8
						c0.5,1.5,2.4,1.7,2.4,3.3c0,0.2-0.2,0.5-0.5,0.5h-5c-0.2,0-0.5-0.2-0.5-0.5V145c0-1.1,0.8-3.3,1.1-5.1
						c0.2-2.5-0.8-6.5,0.2-11.1c0.7-3.4,0.4-5.9,0-8.2c-0.5-3.4-1.2-15.6-1.2-16.9s0-7.3,0-7.3L57,96.3z"/>
					
						<linearGradient id="SVGID_22_" gradientUnits="userSpaceOnUse" x1="26.365" y1="9561.9238" x2="51.7357" y2="9493.1318" gradientTransform="matrix(1 0 0 1 0 -9396.1699)">
						<stop  offset="0" style="stop-color:#EB957C"/>
						<stop  offset="1" style="stop-color:#883A3C"/>
					</linearGradient>
					<path class="st30" d="M48.6,103.6c-0.6,5-0.7,11.6-0.7,14.9c0,3.1-0.5,4.1-0.6,5.7c-0.1,1.7,0.8,3.7,0,8.1
						c-0.8,4.4,0.6,6.7,0.1,8.1s-0.8,2.2-0.8,3.6s0,2.5-1,2.5s-2.1,0-2.5,0c-0.5,0-2.3-0.7-1.9-2.3c0.4-1.6,3.3-4.1,3.5-5.9
						s-3-7-2.8-10.6s1.1-4.4,0.8-7.7c-0.2-3.3-3-13.8-3.3-16.8s0.6-9.1,0.6-9.1l8.6,2.2C48.6,96.3,48.6,103.6,48.6,103.6z"/>
				</g>
				<g>
					
						<linearGradient id="SVGID_23_" gradientUnits="userSpaceOnUse" x1="57.7239" y1="9477.5762" x2="57.8864" y2="9489.6113" gradientTransform="matrix(1 0 0 1 0 -9396.1699)">
						<stop  offset="0" style="stop-color:#2C5060"/>
						<stop  offset="0.1794" style="stop-color:#2B4D5C"/>
						<stop  offset="0.3475" style="stop-color:#274451"/>
						<stop  offset="0.5109" style="stop-color:#21353E"/>
						<stop  offset="0.6716" style="stop-color:#182123"/>
						<stop  offset="0.8289" style="stop-color:#0C0601"/>
						<stop  offset="0.8351" style="stop-color:#0C0500"/>
					</linearGradient>
					<path class="st31" d="M59.8,89.9c0.1-0.7,0.1-1.7,0.1-2.8L56,88L55.8,90C56.5,90.5,57.9,90.9,59.8,89.9z"/>
					
						<linearGradient id="SVGID_24_" gradientUnits="userSpaceOnUse" x1="59.4058" y1="9488.0225" x2="56.2684" y2="9486.4717" gradientTransform="matrix(1 0 0 1 0 -9396.1699)">
						<stop  offset="0" style="stop-color:#F6E2DD"/>
						<stop  offset="1" style="stop-color:#EEC6BC"/>
					</linearGradient>
					<path class="st32" d="M55.8,90l-0.2,1.8c0,0,0.8,1.2,2.3,1.2c1.1,0,1.7-1.1,2.1-3.1C57.9,90.9,56.5,90.5,55.8,90z"/>
				</g>
				
					<linearGradient id="SVGID_25_" gradientUnits="userSpaceOnUse" x1="44.5545" y1="9461.0303" x2="49.2516" y2="9504.2686" gradientTransform="matrix(1 0 0 1 0 -9396.1699)">
					<stop  offset="0" style="stop-color:#2C5060"/>
					<stop  offset="0.1794" style="stop-color:#2B4D5C"/>
					<stop  offset="0.3475" style="stop-color:#274451"/>
					<stop  offset="0.5109" style="stop-color:#21353E"/>
					<stop  offset="0.6716" style="stop-color:#182123"/>
					<stop  offset="0.8289" style="stop-color:#0C0601"/>
					<stop  offset="0.8351" style="stop-color:#0C0500"/>
				</linearGradient>
				<path class="st33" d="M42.7,71.4c-1.8,0.7-2.4,1.6-2.8,2.5c-0.4,0.8-2.5,8.7-2.5,11.4c0,2.7,2.7,8.8,2.7,8.8s11.7,5.1,16.9,2.3
					c-0.5-2.3-1.1-4-1.1-4.5c0-1.1,0.6-3.9,0.6-3.9L51,77.5L42.7,71.4z"/>
				<g>
					
						<linearGradient id="SVGID_26_" gradientUnits="userSpaceOnUse" x1="46.3175" y1="9456.4932" x2="48.7801" y2="9458.2578" gradientTransform="matrix(1 0 0 1 0 -9396.1699)">
						<stop  offset="0" style="stop-color:#F6E2DD"/>
						<stop  offset="1" style="stop-color:#EEC6BC"/>
					</linearGradient>
					<path class="st34" d="M48.6,58.5c-1.2,1.6-1.5,5.1-0.8,6.3c0,0,1.8-0.1,1.8-1.9C49.6,61,48.6,58.5,48.6,58.5z"/>
					
						<linearGradient id="SVGID_27_" gradientUnits="userSpaceOnUse" x1="48.7676" y1="9453.041" x2="54.4213" y2="9485.4971" gradientTransform="matrix(1 0 0 1 0 -9396.1699)">
						<stop  offset="0" style="stop-color:#CD8966"/>
						<stop  offset="1" style="stop-color:#A5643A"/>
					</linearGradient>
					<path class="st35" d="M49.1,57.7c0,0-0.7,0.2-0.7,1.9c0,1.7,0,1.7,0,2.7s-1,1.8-1.8,2.4s-1.1,1.3-1,2.2
						c0.1,0.7-0.4,1.2-0.8,1.6c-0.6,0.4-1,0.8-1,1.7c0,0.7-1.2,0.7-1.9,1.7s0,3.5,2.9,4.1s4.7,1.3,4.7,2.7c0,1.1-1,2.7-0.6,4.6
						c0.5,1.9,3.1,1.9,3.6,3.1s1,3,4.4,2.8s4.5-3.4,3.7-5.3c-0.7-1.8,0-2.1,1-3c1.1-1,1.5-2.4,0-4.2s-1.5-2.7-1.1-4
						c0.2-1.3-0.7-2.5-1.8-3.5s-0.8-1.8-0.8-3.7c0-1.8,0-1.2,0-2.8s-0.5-4.2-3-5.8C52.3,55.1,49.1,55,49.1,57.7z"/>
				</g>
			</g>
		</g>
	</g>
	<g>
		<g>
			<defs>
				<rect id="SVGID_28_" x="4.5" y="50.6" width="93.7" height="36.6"/>
			</defs>
			<clipPath id="SVGID_29_">
				<use xlink:href="#SVGID_28_"  style="overflow:visible;"/>
			</clipPath>
			<g class="st36">
				
					<linearGradient id="SVGID_30_" gradientUnits="userSpaceOnUse" x1="45.9556" y1="9467.1279" x2="46.1859" y2="9480.8535" gradientTransform="matrix(-1 0 0 1 78.5872 -9396.1699)">
					<stop  offset="6.691420e-03" style="stop-color:#4E6B7D"/>
					<stop  offset="1" style="stop-color:#2C5060"/>
				</linearGradient>
				<path class="st37" d="M33.1,71.4c1.5,1.6,2.3,5.6,2.8,9.6c-1.3,1.2-4.4,2.2-6.7,2.3C28.4,79.5,31,69.2,33.1,71.4z"/>
				<path class="st38" d="M36.2,91.7c-0.2,1.9-1.5,6.8-1.6,8c0,1.1,0.1,2.2,0.2,2.5c0.1,0.4,0.4,2.1,0.4,2.3
					c-0.1,0.2-1.1,1.5-1.3,1.6c-0.2,0.1-0.8,0.2-0.8,0.2h-2.3c0,0,0.1-13.7,0.1-15.1c0-1.3-1.7-7.6-1.7-7.6c0-0.1-0.1-0.2-0.1-0.4
					c2.4-0.1,5.4-1.1,6.7-2.3C36.4,85.6,36.4,90.3,36.2,91.7z"/>
				<path class="st38" d="M7.1,88c0-1.1-0.2-3.4-0.4-5.8c1.9-0.6,4.7,0,6.4,1c-0.6,2.7-1.5,6.2-1.5,7c0.1,1.2,0.4,2.8-0.6,6.5
					s-1.6,6.9-1.6,7.3s0.5,0.6,1,1.5c0.5,1,0.1,1.6,0,2.1c-0.1,0.5,0.4,1.7,0.4,2.3s-0.5,0.7-0.7,0.6c-0.2-0.1-0.5-0.4-0.5-1
					s-0.2-1-0.2-1s-0.5,0.4-0.5,0.6c0,0.2,0.4,1.7,0.4,1.8c0.1,0.1,1.1,0.2,1.5,0.6c0.4,0.4,0.2,0.7,0.1,0.8c-0.1,0.1-1.3,0-1.5-0.1
					c-0.1-0.1-1.1-0.7-1.3-1.2c-0.2-0.4-0.7-1.8-1-2.3c-0.2-0.5-0.7-5-0.7-10.9C6.5,91.9,7.2,91.1,7.1,88z"/>
				
					<linearGradient id="SVGID_31_" gradientUnits="userSpaceOnUse" x1="68.3058" y1="9466.5352" x2="68.3058" y2="9491.3457" gradientTransform="matrix(-1 0 0 1 78.5872 -9396.1699)">
					<stop  offset="0" style="stop-color:#4E6B7D"/>
					<stop  offset="0.4864" style="stop-color:#2C5060"/>
				</linearGradient>
				<path class="st39" d="M6.7,82.2c-0.1-4,0.4-8.7,2.9-10.5l4.2,8.6c0,0-0.4,1.2-0.7,2.9C11.6,82.2,8.7,81.5,6.7,82.2z"/>
				<path class="st38" d="M18.7,65.7v2.9l5.2-0.1V64c0,0-0.2-2.3-2.5-2.3S18.7,65.7,18.7,65.7z"/>
				<path class="st38" d="M23.9,63.9v2.7c0,0,0.2,0,0.5,0c0.2,0,1.3-0.5,1.1-3.4c-0.2-2.9-0.7-3.6-0.7-3.6l-0.1,3.9
					c0,0.1-0.1,0.1-0.1,0.1h-0.4c0,0,0-0.8-0.5-1.3c-0.6-0.4-1,0.2-0.8,1c0.1,0.8,0.4,1.2,0.7,1.2C23.8,64.5,23.9,63.9,23.9,63.9"/>
				<path class="st40" d="M16.9,57.7c0.7-1.1,2.8-1.5,3.1-1.8c0.4-0.4,0.8-0.4,1.6,0c0.7,0.4,1.5,0.8,1.5,0.8s-0.5-1-0.4-1.1
					c0.1-0.1,0.8,0.6,0.8,0.8s0,0.6,0,0.6c0.5-0.2,1.7,0.1,1.9,0.6s-0.8,1.6-0.8,1.8l-0.1,3.9c0,0.1-0.1,0.1-0.1,0.1H24
					c0,0,0-0.8-0.5-1.3c-0.2-0.1-0.4-0.1-0.5,0l0,0l0,0c0,0-0.8,0.5-0.8,2.4c0,0.1,0,0.2-0.1,0.4c-1.6,1.6-3.4,0.6-3.4,0.6
					c0-0.5-0.5-1.1-1.7-2.7C15.8,61.6,16.2,58.8,16.9,57.7z"/>
				
					<linearGradient id="SVGID_32_" gradientUnits="userSpaceOnUse" x1="57.1713" y1="9464.6914" x2="57.1713" y2="9504.251" gradientTransform="matrix(-1 0 0 1 78.5872 -9396.1699)">
					<stop  offset="0" style="stop-color:#4E6B7D"/>
					<stop  offset="1" style="stop-color:#2C5060"/>
				</linearGradient>
				<path class="st41" d="M13.4,103.9c-0.1-1-0.1-1.8-0.1-2.5c0-4-0.4-21.3-0.7-22c-0.5-0.7-2.2-4.6-2.8-7.6c10.3-7,22-2.1,23.3-0.4
					c-2.3,3.5-2.7,9.8-2.9,15.4c-0.1,3.9,0.2,10.5,0.6,16.9C26.4,105.8,17.1,106.2,13.4,103.9z"/>
				
					<linearGradient id="SVGID_33_" gradientUnits="userSpaceOnUse" x1="85.0016" y1="9555.3691" x2="15.903" y2="9471.2568" gradientTransform="matrix(-1 0 0 1 78.5872 -9396.1699)">
					<stop  offset="0" style="stop-color:#A5643A"/>
					<stop  offset="1" style="stop-color:#0C0500"/>
				</linearGradient>
				<path class="st42" d="M13.4,103.9c3.7,2.3,13.1,1.9,17.4-0.1c0.1,2.8,0.2,5.6,0.2,8.1c0,8.5,1.1,13.7-0.4,18.9
					c-1.5,5.2-3.4,10.3-3.1,11c0.4,1.1,1.2,2.8,2.2,3c0.8,0.5,0.4,1.7-0.2,1.7c-0.6,0-1.7,0-2.5,0c-1.1,0-2.8-1.7-3.3-2.2
					c-0.7-0.8,0.1-1.9,0.5-2.8c0.4-1,0-7.6-0.1-10.5c0-2.9,1-5.8,1.2-7s-2.8-15.1-2.8-15.1h-0.4c0,0-1.8,10.6-1.8,12.2
					c0,1.6,0.5,3.4,1.7,8c1.1,4.5-0.5,10.6-0.5,13.1v4.1c0,0.2-0.2,0.5-0.5,0.5h-6.2c-0.2,0-0.5-0.2-0.4-0.6
					c0.1-0.2,0.2-0.5,0.4-0.8c0.5-0.7,3.3-1.2,3.4-1.8c0.1-0.5-2.1-8.1-3.1-13.2c-1.1-5.1,0.2-9.3-0.1-12
					C14.7,116,13.6,108.6,13.4,103.9z"/>
			</g>
		</g>
	</g>
</g>
</svg>
