<?xml version="1.0" encoding="utf-8"?>
<!-- Generator: Adobe Illustrator 23.0.2, SVG Export Plug-In . SVG Version: 6.00 Build 0)  -->
<svg version="1.1" id="Calque_1" xmlns="http://www.w3.org/2000/svg" xmlns:xlink="http://www.w3.org/1999/xlink" x="0px" y="0px"
	 viewBox="0 0 100 100" style="enable-background:new 0 0 100 100;" xml:space="preserve">
<style type="text/css">
	.st0{fill:none;stroke:#006F38;stroke-width:3.6147;stroke-miterlimit:10;}
	.st1{fill:#006F38;}
	.st2{fill:#006F38;stroke:#FFFFFF;stroke-width:2.8917;stroke-miterlimit:10;}
	.st3{enable-background:new    ;}
	.st4{fill:#FFFFFF;}
</style>
<g>
	<path class="st0" d="M67.5,4.7H32.3c-3,0-5.5,2.5-5.5,5.5v66.7c0,3,2.5,5.5,5.5,5.5h50c3,0,5.5-2.5,5.5-5.5V25.3L67.5,4.7z"/>
	<path class="st1" d="M67.5,4.7v15.1c0,3,2.5,5.5,5.5,5.5h14.8L67.5,4.7z"/>
	<path class="st2" d="M53.3,51.5H23.8c-5.7,0-10.3-4.6-10.3-10.3v-7.1c0-5.7,4.6-10.3,10.3-10.3h29.4c5.7,0,10.3,4.6,10.3,10.3v7.1
		C63.6,46.9,58.9,51.5,53.3,51.5z"/>
	<g class="st3">
		<path class="st4" d="M28.4,33.4l2.9,3.8l2.9-3.8H35l-3.4,4.4l3.3,4.3H34l-2.8-3.7l-2.8,3.7h-1l3.3-4.3l-3.4-4.4H28.4z"/>
		<path class="st4" d="M36.2,42.1v-8.7H37v8h5v0.8H36.2z"/>
		<path class="st4" d="M48.5,35c-0.2-0.3-0.6-0.5-1-0.7c-0.4-0.2-0.9-0.3-1.4-0.3c-0.8,0-1.3,0.1-1.7,0.4c-0.4,0.3-0.5,0.7-0.5,1.2
			c0,0.3,0,0.5,0.1,0.6c0.1,0.2,0.2,0.3,0.4,0.4s0.4,0.2,0.8,0.3s0.7,0.2,1.1,0.3c0.5,0.1,0.9,0.2,1.3,0.3c0.4,0.1,0.7,0.3,1,0.5
			c0.3,0.2,0.5,0.4,0.6,0.7c0.1,0.3,0.2,0.6,0.2,1c0,0.4-0.1,0.8-0.2,1s-0.4,0.5-0.7,0.7c-0.3,0.2-0.6,0.3-1,0.4
			c-0.4,0.1-0.8,0.1-1.3,0.1c-1.4,0-2.5-0.4-3.5-1.3l0.4-0.7c0.2,0.2,0.3,0.3,0.6,0.5c0.2,0.1,0.5,0.3,0.7,0.4
			c0.3,0.1,0.6,0.2,0.9,0.3c0.3,0.1,0.6,0.1,1,0.1c0.7,0,1.2-0.1,1.6-0.4c0.4-0.2,0.6-0.6,0.6-1.1c0-0.3-0.1-0.5-0.2-0.7
			c-0.1-0.2-0.3-0.3-0.5-0.5c-0.2-0.1-0.5-0.3-0.8-0.4c-0.3-0.1-0.7-0.2-1.1-0.3c-0.5-0.1-0.9-0.2-1.2-0.3c-0.3-0.1-0.6-0.3-0.9-0.4
			c-0.2-0.2-0.4-0.4-0.5-0.6C43,36.5,43,36.2,43,35.8c0-0.4,0.1-0.8,0.2-1.1c0.2-0.3,0.4-0.6,0.6-0.8c0.3-0.2,0.6-0.4,1-0.5
			c0.4-0.1,0.8-0.2,1.3-0.2c0.6,0,1.1,0.1,1.6,0.3c0.5,0.2,0.9,0.4,1.2,0.7L48.5,35z"/>
	</g>
	<polygon class="st2" points="65.8,74.4 65.8,57.9 48.6,57.9 48.6,74.4 39.5,74.4 57.1,96.2 74.6,74.4 	"/>
</g>
</svg>
